Selecting CIP codes
…
cip_filter() filters a reference data frame (the default is cip) for specified search terms. The two arguments are:

series an atomic character vector of search terms to filter by

reference the data frame to be filtered and returned

For R novices, an “atomic vector” is a one-dimensional, homogeneous data structure, often created using the c() function. For more information on data structures, see Advanced R.

With no arguments, cip_filter() returns the complete cip data set.

cip_filter() %>% 
    print()
#> # A tibble: 1,584 x 6
#>   cip2  cip2name             cip4  cip4name       cip6  cip6name          
#>   <chr> <chr>                <chr> <chr>          <chr> <chr>             
#> 1 01    Agriculture, Agricu~ 0100  Agriculture, ~ 0100~ Agriculture, Gene~
#> 2 01    Agriculture, Agricu~ 0101  Agricultural ~ 0101~ Agricultural Busi~
#> 3 01    Agriculture, Agricu~ 0101  Agricultural ~ 0101~ Agribusiness, Agr~
#> 4 01    Agriculture, Agricu~ 0101  Agricultural ~ 0101~ Agricultural Econ~
#> 5 01    Agriculture, Agricu~ 0101  Agricultural ~ 0101~ Farm, Farm and Ra~
#> 6 01    Agriculture, Agricu~ 0101  Agricultural ~ 0101~ Agricultural, Far~
#> 7 01    Agriculture, Agricu~ 0101  Agricultural ~ 0101~ Agricultural Busi~
#> 8 01    Agriculture, Agricu~ 0101  Agricultural ~ 0101~ Agricultural Busi~
#> # ... with 1,576 more rows
…
