Compute graduation rate
…
There are a total of 12 CIP codes for these programs. We have two columns from the cip dataset and the program column we added using cip6_select().

 ▲ top of page

Impute starting majors for FYE students

Some US institutions have first year engineering (FYE) programs—typically a common first year curriculum that is a prerequisite for declaring an engineering major. Because students matriculating in FYE cannot graduate in FYE, they cannot be included in a graduation rate metric without special treatment.

Note that FYE students are neither undecided nor undeclared. Their institutions admitted them as engineering students. We define their “starting major” as the degree-granting engineering program—Civil, Electrical, Mechanical, etc.—that we predict they would have declared had they not been required to enroll in FYE.

The prediction process is described in the vignette Imputing starting majors for FYE students. The results are available in the midfieldr data set case_fye. The data frame has two columns: the student ID of all FYE students in the midfielddata, and the 6-digit CIP of their imputed starting engineering major.

print(case_fye)
#> # A tibble: 5,992 x 2
#>   id          cip6  
#>   <chr>       <chr> 
#> 1 MID25877315 140901
#> 2 MID25896490 141001
#> 3 MID25916711 141001
#> 4 MID25921297 140701
#> 5 MID25923624 140701
#> # ... with 5,987 more rows
…
We extract the vector of 6-digit CIP codes for our programs.

# obtain the cip6 codes 
program_series <- program_group[["cip6"]]

We use starter_filter() to extract students from case_fye data who start in one of the programs in program_series. The starter_filter() function has two main arguments:

data data frame with ID and 6-digit CIP codes

codes atomic character vector of 6-digit CIP codes

# extract starters from FYE
fye <- starter_filter(data = case_fye, codes = program_series) %>%
  print()
#> # A tibble: 3,843 x 2
#>   id          cip6  
#>   <chr>       <chr> 
#> 1 MID25896490 141001
#> 2 MID25916711 141001
#> 3 MID25977012 141901
#> 4 MID25864996 141001
#> 5 MID25870152 141001
#> # ... with 3,838 more rows

Thus we have nearly 3900 FYE students imputed to have matriculated in one of our case study programs.

We use starter_filter() again on the midfieldterms data to obtain non-FYE starters in our programs. The data argument default value is midfieldterms, so the following two code chunks yield the same result.

# explicit value for the data argument 
non_fye <- starter_filter(data = midfieldterms, codes = program_series)

# implicit value for the data argument is midfieldterms
non_fye <- starter_filter(codes = program_series)

print(non_fye)
#> # A tibble: 5,026 x 2
#>   id          cip6  
#>   <chr>       <chr> 
#> 1 MID25792087 141901
#> 2 MID25796088 140801
#> 3 MID25799551 141001
#> 4 MID25799578 141001
#> 5 MID25808049 140801
#> # ... with 5,021 more rows
…
The codes argument in this case is an atomic vector of the 6-digit CIP codes in our program_group. The function uses these codes to search midfieldstudents, the default data set. Use print() to check the result.

program_series <- program_group[["cip6"]] %>%
  unique() %>%
  sort() %>%
  print()
#>  [1] "140801" "140802" "140803" "140804" "140805" "140899" "141001" "141003"
#>  [9] "141004" "141099" "141901" "143501"

Extract all students from midfieldstudents starting in these programs.

students <- starter_filter(codes = program_series) %>%
  print()
#> # A tibble: 5,026 x 2
#>   id          cip6  
#>   <chr>       <chr> 
#> 1 MID25792087 141901
#> 2 MID25796088 140801
#> 3 MID25799551 141001
#> 4 MID25799578 141001
#> 5 MID25808049 140801
#> # ... with 5,021 more rows

Open the help page by running

? starter_filter()

When studying engineering programs, we must account for the imputed starting majors of students at institutions with a required first year engineering (FYE) program. For the data in this package, the imputed values are saved in the case_fye data set. Use starter_filter() again with case_fye as the data argument.

fye <- starter_filter(data = case_fye, codes = program_series) %>%
  print()
#> # A tibble: 3,843 x 2
#>   id          cip6  
#>   <chr>       <chr> 
#> 1 MID25896490 141001
#> 2 MID25916711 141001
#> 3 MID25977012 141901
#> 4 MID25864996 141001
#> 5 MID25870152 141001
#> # ... with 3,838 more rows

Then bind the two data frames.

started <- bind_rows(students, fye) %>%
  print()
#> # A tibble: 8,869 x 2
#>   id          cip6  
#>   <chr>       <chr> 
#> 1 MID25792087 141901
#> 2 MID25796088 140801
#> 3 MID25799551 141001
#> 4 MID25799578 141001
#> 5 MID25808049 140801
#> # ... with 8,864 more rows
…
 ▲ top of page

grad_filter()

Next we gather the graduates in our program group, but restrict ourselves to students who graduate in the same program in which they started.

We use grad_filter() to search the midfielddegrees dataset using the programs listed in program_series.

# count students graduating from programs
graduated <- grad_filter(codes = program_series) %>%
  print()
#> # A tibble: 4,676 x 2
#>   id          cip6  
#>   <chr>       <chr> 
#> 1 MID25783178 143501
#> 2 MID25783197 140801
#> 3 MID25783441 140801
#> 4 MID25783491 141001
#> 5 MID25783912 143501
#> # ... with 4,671 more rows
…
# started <- rename(started, start = cip6)
# graduated <- rename(graduated, grad = cip6)

In the join, we keep all starters and we keep only those graduates whose ID is also in the starters.

start_series <- started[["id"]] %>%
  glimpse()
#>  chr [1:8869] "MID25792087" "MID25796088" "MID25799551" "MID25799578" ...

collapse_series <- str_c(start_series, collapse = "|")

graduated <- filter(graduated, str_detect(id, collapse_series)) %>%
  print()
#> # A tibble: 3,380 x 2
#>   id          cip6  
#>   <chr>       <chr> 
#> 1 MID25783441 140801
#> 2 MID25783491 141001
#> 3 MID25783912 143501
#> 4 MID25784334 140801
#> 5 MID25784418 140801
#> # ... with 3,375 more rows

Join race and sex to both data frames, and the program names.

# assign the variables for grouping
grouping_variables <- c("program", "race", "sex")

# count students
started <- started %>%
  race_sex_join() %>%
  left_join(., program_group, by = "cip6") %>%
  group_summarize(., grouping_variables, "start" = n()) %>%
  print()
#> # A tibble: 63 x 4
#>   program           race     sex    start
#>   <chr>             <chr>    <chr>  <int>
#> 1 Civil Engineering Asian    Female    15
#> 2 Civil Engineering Asian    Male      48
#> 3 Civil Engineering Black    Female    48
#> 4 Civil Engineering Black    Male     101
#> 5 Civil Engineering Hispanic Female    17
#> # ... with 58 more rows

graduated <- graduated %>%
  race_sex_join() %>%
  left_join(., program_group, by = "cip6") %>%
  group_summarize(., grouping_variables, "grad" = n()) %>%
  print()
#> # A tibble: 59 x 4
#>   program           race     sex     grad
#>   <chr>             <chr>    <chr>  <int>
#> 1 Civil Engineering Asian    Female     6
#> 2 Civil Engineering Asian    Male      18
#> 3 Civil Engineering Black    Female    18
#> 4 Civil Engineering Black    Male      33
#> 5 Civil Engineering Hispanic Female     3
#> # ... with 54 more rows

And join the two data frames

# tally stickiness, by group
grad_rate <- left_join(started, graduated, by = grouping_variables) %>%
  filter(start > 5) %>%
  mutate(rate = round(grad / start, 2)) %>%
  print()
#> # A tibble: 48 x 6
#>   program           race     sex    start  grad  rate
#>   <chr>             <chr>    <chr>  <int> <int> <dbl>
#> 1 Civil Engineering Asian    Female    15     6  0.4 
#> 2 Civil Engineering Asian    Male      48    18  0.38
#> 3 Civil Engineering Black    Female    48    18  0.38
#> 4 Civil Engineering Black    Male     101    33  0.33
#> 5 Civil Engineering Hispanic Female    17     3  0.18
#> # ... with 43 more rows
…
