Explore the workflow
…
 ▲ top of page

Group and count students

First we extract the 6-digit CIP codes from our program group to use as search terms to identify students in these programs.

program_group_cip6 <- program_group[["cip6"]]

Use ever_filter() to access the midfieldterms dataset and extract all students who ever enrolled in these programs. Use race_sex_join() to access the midfieldstudents dataset and append students’ race and sex to the working data frame.

students <- ever_filter(data = midfieldterms, codes = program_group_cip6) %>%
  race_sex_join() %>%
  print() # or View()
#> # A tibble: 6,402 x 4
#>    id          cip6   race          sex  
#>    <chr>       <chr>  <chr>         <chr>
#>  1 MID25783178 140701 Black         Male 
#>  2 MID25783178 143501 Black         Male 
#>  3 MID25783197 140701 White         Male 
#>  4 MID25783257 140701 White         Male 
#>  5 MID25783491 141001 White         Male 
#>  6 MID25783606 141001 White         Male 
#>  7 MID25783912 143501 White         Male 
#>  8 MID25784118 141001 White         Male 
#>  9 MID25784209 141001 International Male 
#> 10 MID25784234 143501 White         Male 
#> # ... with 6,392 more rows

Next we join our custom program names to the student data.

students <- left_join(students, program_group, by = "cip6") %>%
  print() # or View()
#> # A tibble: 6,402 x 6
#>    id       cip6   race      sex   cip6name                       program       
#>    <chr>    <chr>  <chr>     <chr> <chr>                          <chr>         
#>  1 MID2578~ 140701 Black     Male  Chemical Engineering           Chemical Engi~
#>  2 MID2578~ 143501 Black     Male  Industrial Engineering         Industrial En~
#>  3 MID2578~ 140701 White     Male  Chemical Engineering           Chemical Engi~
#>  4 MID2578~ 140701 White     Male  Chemical Engineering           Chemical Engi~
#>  5 MID2578~ 141001 White     Male  Electrical, Electronics and C~ Electrical En~
#>  6 MID2578~ 141001 White     Male  Electrical, Electronics and C~ Electrical En~
#>  7 MID2578~ 143501 White     Male  Industrial Engineering         Industrial En~
#>  8 MID2578~ 141001 White     Male  Electrical, Electronics and C~ Electrical En~
#>  9 MID2578~ 141001 Internat~ Male  Electrical, Electronics and C~ Electrical En~
#> 10 MID2578~ 143501 White     Male  Industrial Engineering         Industrial En~
#> # ... with 6,392 more rows

We create a vector of grouping variables and use the seplyr group_summarize() function to count the numbers of students ever enrolled in these programs.

At this point, by grouping and summarizing, we lose all but the three grouping variables and add the new variable ever to denote the count.

# grouping variables for summarizing and later for joining 
grouping_variables <- c("program", "race", "sex")

ever_enrolled <- students %>%
  group_summarize(grouping_variables, ever = n()) %>%
  print() # or View()
#> # A tibble: 48 x 4
#>    program              race            sex     ever
#>    <chr>                <chr>           <chr>  <int>
#>  1 Chemical Engineering Asian           Female    56
#>  2 Chemical Engineering Asian           Male      98
#>  3 Chemical Engineering Black           Female   147
#>  4 Chemical Engineering Black           Male      98
#>  5 Chemical Engineering Hispanic        Female    37
#>  6 Chemical Engineering Hispanic        Male      57
#>  7 Chemical Engineering International   Female     8
#>  8 Chemical Engineering International   Male      23
#>  9 Chemical Engineering Native American Female     7
#> 10 Chemical Engineering Native American Male       8
#> # ... with 38 more rows
…
We join the two data frames by the grouping variables.

stickiness <- left_join(ever_enrolled, graduated, by = grouping_variables)

We suggest omitting observations with 5 or fewer students ever enrolled.

stickiness <- stickiness %>%
  filter(ever > 5)

And we compute stickiness, the ratio of grad to ever.

stickiness <- stickiness %>%
  mutate(stick = round(grad / ever, 3)) %>%
  print() # or View()
#> # A tibble: 41 x 6
#>    program              race            sex     ever  grad stick
#>    <chr>                <chr>           <chr>  <int> <int> <dbl>
#>  1 Chemical Engineering Asian           Female    56    26 0.464
#>  2 Chemical Engineering Asian           Male      98    35 0.357
#>  3 Chemical Engineering Black           Female   147    52 0.354
#>  4 Chemical Engineering Black           Male      98    26 0.265
#>  5 Chemical Engineering Hispanic        Female    37    11 0.297
#>  6 Chemical Engineering Hispanic        Male      57    18 0.316
#>  7 Chemical Engineering International   Female     8     4 0.5  
#>  8 Chemical Engineering International   Male      23     7 0.304
#>  9 Chemical Engineering Native American Female     7     1 0.143
#> 10 Chemical Engineering Native American Male       8     3 0.375
#> # ... with 31 more rows
…
stickiness_mw <- stickiness %>%
  filter(!race %in% c("Unknown", "International", "Other")) %>%
  filter(!sex %in% "Unknown") %>%
  mutate(race_sex = paste(race, sex))

We graph these results in a multiway dot plot (Cleveland 1993), a display type based on a data structure of two categorical variables (program and race/ethnicity/sex) and one quantitative variable (stickiness).

multiway_order() converts the two categorical variables to factors and orders their levels by median stickiness.

stickiness_mw <- stickiness_mw %>%
  select(program, race_sex, stick) %>%
  multiway_order(return_medians = TRUE) %>%
  print() # or View()
#> # A tibble: 27 x 5
#>    program              race_sex               stick med_program med_race_sex
#>    <fct>                <fct>                  <dbl>       <dbl>        <dbl>
#>  1 Chemical Engineering Asian Female           0.464       0.356        0.449
#>  2 Chemical Engineering Asian Male             0.357       0.356        0.474
#>  3 Chemical Engineering Black Female           0.354       0.356        0.4  
#>  4 Chemical Engineering Black Male             0.265       0.356        0.331
#>  5 Chemical Engineering Hispanic Female        0.297       0.356        0.297
#>  6 Chemical Engineering Hispanic Male          0.316       0.356        0.36 
#>  7 Chemical Engineering Native American Female 0.143       0.356        0.143
#>  8 Chemical Engineering Native American Male   0.375       0.356        0.229
#>  9 Chemical Engineering White Female           0.368       0.356        0.368
#> 10 Chemical Engineering White Male             0.395       0.356        0.427
#> # ... with 17 more rows
…
