Exploring program CIP codes
…
The CIP is periodically updated. A 2020 CIP has been released, but MIDFIELD currently uses the 2010 CIP. Read more about the CIP at (“IPEDS Classification of Instructional Programs” 2010).

 ▲ top of page

CIP data

# packages used in the vignette
library("midfieldr")
library("dplyr")

cip is a data frame bundled with midfieldr containing columns of 2, 4, and 6-digit 2010 CIP codes and program names. All columns are character strings.

print(cip)
#> # A tibble: 1,584 x 6
#>   cip2  cip2name               cip4  cip4name         cip6  cip6name            
#>   <chr> <chr>                  <chr> <chr>            <chr> <chr>               
#> 1 01    Agriculture, Agricult~ 0100  Agriculture, Ge~ 0100~ Agriculture, General
#> 2 01    Agriculture, Agricult~ 0101  Agricultural Bu~ 0101~ Agricultural Busine~
#> 3 01    Agriculture, Agricult~ 0101  Agricultural Bu~ 0101~ Agribusiness, Agric~
#> 4 01    Agriculture, Agricult~ 0101  Agricultural Bu~ 0101~ Agricultural Econom~
#> 5 01    Agriculture, Agricult~ 0101  Agricultural Bu~ 0101~ Farm, Farm and Ranc~
#> 6 01    Agriculture, Agricult~ 0101  Agricultural Bu~ 0101~ Agricultural, Farm ~
#> 7 01    Agriculture, Agricult~ 0101  Agricultural Bu~ 0101~ Agricultural Busine~
#> 8 01    Agriculture, Agricult~ 0101  Agricultural Bu~ 0101~ Agricultural Busine~
#> # ... with 1,576 more rows
…
Filtering basics

cip_filter() filters a data frame by specified search terms. The arguments are:

data data frame of character strings of CIP codes and names

series character vector used to filter data, retaining rows containing any of these terms.

except optional argument, character vector used to filter data, deleting rows containing any of these terms.

For example, to filter the CIP data for all programs containing the word “engineering”,

cip_filter(data = cip, series = "engineering") %>%
  print()
#> # A tibble: 121 x 6
#>   cip2  cip2name  cip4  cip4name                 cip6  cip6name                 
#>   <chr> <chr>     <chr> <chr>                    <chr> <chr>                    
#> 1 14    Engineer~ 1401  Engineering, General     1401~ Engineering, General     
#> 2 14    Engineer~ 1401  Engineering, General     1401~ Pre-Engineering          
#> 3 14    Engineer~ 1402  Aerospace, Aeronautical~ 1402~ Aerospace, Aeronautical ~
#> 4 14    Engineer~ 1403  Agricultural, Biologica~ 1403~ Agricultural, Biological~
#> 5 14    Engineer~ 1404  Architectural Engineeri~ 1404~ Architectural Engineering
#> 6 14    Engineer~ 1405  Biomedical, Medical Eng~ 1405~ Biomedical, Medical Engi~
#> 7 14    Engineer~ 1406  Ceramic Sciences and En~ 1406~ Ceramic Sciences and Eng~
#> 8 14    Engineer~ 1407  Chemical Engineering     1407~ Chemical Engineering     
#> # ... with 113 more rows

The first two argument names can be omitted if they are in the correct order. We will generally include argument names for the benefit of R novices though readers are free to omit argument names like these if they wish.

cip_filter(cip, "engineering") %>%
  print()
#> # A tibble: 121 x 6
#>   cip2  cip2name  cip4  cip4name                 cip6  cip6name                 
#>   <chr> <chr>     <chr> <chr>                    <chr> <chr>                    
#> 1 14    Engineer~ 1401  Engineering, General     1401~ Engineering, General     
#> 2 14    Engineer~ 1401  Engineering, General     1401~ Pre-Engineering          
#> 3 14    Engineer~ 1402  Aerospace, Aeronautical~ 1402~ Aerospace, Aeronautical ~
#> 4 14    Engineer~ 1403  Agricultural, Biologica~ 1403~ Agricultural, Biological~
#> 5 14    Engineer~ 1404  Architectural Engineeri~ 1404~ Architectural Engineering
#> 6 14    Engineer~ 1405  Biomedical, Medical Eng~ 1405~ Biomedical, Medical Engi~
#> 7 14    Engineer~ 1406  Ceramic Sciences and En~ 1406~ Ceramic Sciences and Eng~
#> 8 14    Engineer~ 1407  Chemical Engineering     1407~ Chemical Engineering     
#> # ... with 113 more rows
…
Notes.

A function help page will indicate which arguments, if any, must be named. See the help page for this function by running ? cip_filter.

In subsequent sections, we examine different strategies for using cip_filter().

 ▲ top of page

Filtering using keywords

Suppose we want to find the CIP codes and names for all programs in Civil Engineering. The search is case-insensitive, so we start with the following code chunk.

cip_filter(data = cip, series = "civil") %>%
  print() # View() can be used instead
#> # A tibble: 12 x 6
#>   cip2  cip2name                  cip4  cip4name     cip6  cip6name             
#>   <chr> <chr>                     <chr> <chr>        <chr> <chr>                
#> 1 05    Area, Ethnic, Cultural a~ 0501  Area Studies 0501~ American, United Sta~
#> 2 05    Area, Ethnic, Cultural a~ 0501  Area Studies 0501~ Asian Studies, Civil~
#> 3 05    Area, Ethnic, Cultural a~ 0501  Area Studies 0501~ European Studies, Ci~
#> 4 14    Engineering               1408  Civil Engin~ 1408~ Civil Engineering, G~
#> 5 14    Engineering               1408  Civil Engin~ 1408~ Geotechnical Enginee~
#> 6 14    Engineering               1408  Civil Engin~ 1408~ Structural Engineeri~
#> 7 14    Engineering               1408  Civil Engin~ 1408~ Transportation and H~
#> 8 14    Engineering               1408  Civil Engin~ 1408~ Water Resources Engi~
#> # ... with 4 more rows
…
