Gather program data
…
Parks, Recreation, Leisure and Fitness Studies, Other

 ▲ top of page

Non-midfieldr CIP variables

Optional arguments in cip6_select() accommodate the possibility that one uses a CIP data frame with different variable names than those in midfieldr::cip. The four columns accommodated are cip6, cip6name, cip4name, and cip2name.

For illustration only, let’s create a CIP data frame called nonstandard_cip with a different name for the two variables cip6 and cip6name.

nonstandard_cip <- cip %>% 
  rename("code_6" = cip6, "name_6" = cip6name) %>% 
  print() # or View() 
#> # A tibble: 1,584 x 6
#>   cip2  cip2name                cip4  cip4name          code_6 name_6           
#>   <chr> <chr>                   <chr> <chr>             <chr>  <chr>            
#> 1 01    Agriculture, Agricultu~ 0100  Agriculture, Gen~ 010000 Agriculture, Gen~
#> 2 01    Agriculture, Agricultu~ 0101  Agricultural Bus~ 010101 Agricultural Bus~
#> 3 01    Agriculture, Agricultu~ 0101  Agricultural Bus~ 010102 Agribusiness, Ag~
#> 4 01    Agriculture, Agricultu~ 0101  Agricultural Bus~ 010103 Agricultural Eco~
#> 5 01    Agriculture, Agricultu~ 0101  Agricultural Bus~ 010104 Farm, Farm and R~
#> # ... with 1,579 more rows

Option 1: If the non-standard variable names must be kept intact, then we use the optional arguments cip6 and cip6name so that cip6_select() can operate on the nonstandard column names.

nonstandard_cip %>% 
  cip_filter(data = ., keep_any = "^31") %>% 
  cip6_select(program = "Leisure Studies", cip6 = "code_6", cip6name = "name_6") %>% 
  print() # or View() 
#> # A tibble: 12 x 3
#>   code_6 name_6                                                   program       
#>   <chr>  <chr>                                                    <chr>         
#> 1 310101 Parks, Recreation and Leisure Studies                    Leisure Studi~
#> 2 310301 Parks, Recreation and Leisure Facilities Management      Leisure Studi~
#> 3 310302 Golf Course Operation and Grounds Management             Leisure Studi~
#> 4 310399 Parks, Recreation and Leisure Facilities Management, Ot~ Leisure Studi~
#> 5 310501 Health and Physical Education, General                   Leisure Studi~
#> # ... with 7 more rows

Option 2: If the non-standard variable names do not have to be kept intact, the simple option is to dplyr::rename() the nonstandard variable names to the standard names, e.g.,

standard_cip <- nonstandard_cip %>% 
  cip_filter(data = ., keep_any = "^31") %>% 
  rename("cip6" = code_6, "cip6name" = name_6) %>% 
  print() # or View() 
#> # A tibble: 12 x 6
#>   cip2  cip2name           cip4  cip4name             cip6  cip6name            
#>   <chr> <chr>              <chr> <chr>                <chr> <chr>               
#> 1 31    Parks, Recreation~ 3101  Parks, Recreation a~ 3101~ Parks, Recreation a~
#> 2 31    Parks, Recreation~ 3103  Parks, Recreation a~ 3103~ Parks, Recreation a~
#> 3 31    Parks, Recreation~ 3103  Parks, Recreation a~ 3103~ Golf Course Operati~
#> 4 31    Parks, Recreation~ 3103  Parks, Recreation a~ 3103~ Parks, Recreation a~
#> 5 31    Parks, Recreation~ 3105  Health and Physical~ 3105~ Health and Physical~
#> # ... with 7 more rows
…
