Computing stickiness
…
The filter_by argument in this case is an atomic vector of the 6-digit CIP codes in our program_group. The function uses these codes to search midfieldterms, the default reference data set. Use print() to check the result.

# extract the 6-digit CIPs as a search series
program_series <- program_group[["cip6"]] %>%
        unique() %>%
        sort() %>%
        print()
#>  [1] "140801" "140802" "140803" "140804" "140805" "140899" "141001" "141003"
#>  [9] "141004" "141099" "141901" "143501"

Extract all students from midfieldterms ever enrolled in these programs.

students <- ever_filter(data = midfieldterms, filter_by = program_series) %>% 
        print()
#> # A tibble: 10,764 x 2
#>    id          cip6  
#>    <chr>       <chr> 
#>  1 MID25783178 143501
#>  2 MID25783197 140801
#>  3 MID25783388 141901
#>  4 MID25783441 140801
#>  5 MID25783491 141001
#>  6 MID25783553 140801
#>  7 MID25783606 141001
#>  8 MID25783648 140801
#>  9 MID25783912 143501
#> 10 MID25784022 141901
#> 11 MID25784025 141901
#> 12 MID25784056 141901
#> # ... with 10,752 more rows

If one is working strictly with the data sets in midfielddata, then the data argument can be omitted because if data is NULL, its default assignment is midfielddata::midfieldterms. Thus, the following code yields the same result as the one above.

students <- ever_filter(filter_by = program_series) %>% 
        print()
#> # A tibble: 10,764 x 2
#>    id          cip6  
#>    <chr>       <chr> 
#>  1 MID25783178 143501
#>  2 MID25783197 140801
#>  3 MID25783388 141901
#>  4 MID25783441 140801
#>  5 MID25783491 141001
#>  6 MID25783553 140801
#>  7 MID25783606 141001
#>  8 MID25783648 140801
#>  9 MID25783912 143501
#> 10 MID25784022 141901
#> 11 MID25784025 141901
#> 12 MID25784056 141901
#> # ... with 10,752 more rows
View the result to check the number of observations and to view the first few values of each variable. We see that we have 10,764 students ever enrolled in these programs.

Open the help page by running

? ever_filter()

 ▲ top of page

Group and summarize ever enrolled

race_sex_join() accepts any data frame with the MIDFIELD student id variable and joins the student race and sex from the midfieldstudents reference data to these data. If using the default reference data, the demographics argument can be omitted.

students <- race_sex_join(data = students, demographics = midfieldstudents) %>%
        print()
#> # A tibble: 10,764 x 4
#>    id          cip6   race  sex  
#>    <chr>       <chr>  <chr> <chr>
#>  1 MID25783178 143501 Black Male 
#>  2 MID25783197 140801 White Male 
#>  3 MID25783388 141901 White Male 
#>  4 MID25783441 140801 White Male 
#>  5 MID25783491 141001 White Male 
#>  6 MID25783553 140801 White Male 
#>  7 MID25783606 141001 White Male 
#>  8 MID25783648 140801 White Male 
#>  9 MID25783912 143501 White Male 
#> 10 MID25784022 141901 White Male 
#> 11 MID25784025 141901 Black Male 
#> 12 MID25784056 141901 White Male 
#> # ... with 10,752 more rows

If the argument to race_sex_join() already includes a sex or race column, that column (or columns) is returned unchanged. Open the help page by running

? race_sex_join()

Next we join our custom program names to the student data. We use left_join() (a dplyr function) to join program_group to students by the 6-digit CIP code.

students <- left_join(students, program_group, by = "cip6") %>%
        print()
#> # A tibble: 10,764 x 6
#>    id        cip6  race  sex   cip6name                          program        
#>    <chr>     <chr> <chr> <chr> <chr>                             <chr>          
#>  1 MID25783~ 1435~ Black Male  Industrial Engineering            Industrial Eng~
#>  2 MID25783~ 1408~ White Male  Civil Engineering, General        Civil Engineer~
#>  3 MID25783~ 1419~ White Male  Mechanical Engineering            Mechanical Eng~
#>  4 MID25783~ 1408~ White Male  Civil Engineering, General        Civil Engineer~
#>  5 MID25783~ 1410~ White Male  Electrical, Electronics and Comm~ Electrical Eng~
#>  6 MID25783~ 1408~ White Male  Civil Engineering, General        Civil Engineer~
#>  7 MID25783~ 1410~ White Male  Electrical, Electronics and Comm~ Electrical Eng~
#>  8 MID25783~ 1408~ White Male  Civil Engineering, General        Civil Engineer~
#>  9 MID25783~ 1435~ White Male  Industrial Engineering            Industrial Eng~
#> 10 MID25784~ 1419~ White Male  Mechanical Engineering            Mechanical Eng~
#> 11 MID25784~ 1419~ Black Male  Mechanical Engineering            Mechanical Eng~
#> 12 MID25784~ 1419~ White Male  Mechanical Engineering            Mechanical Eng~
#> # ... with 10,752 more rows

We use group_summarize() (an seplyr function) to group and count the numbers of students ever enrolled in our programs. All variables in students not used as grouping variables are quietly dropped. The assigned count variable is ever.

# count students ever enrolled in programs
ever_enrolled <- group_summarize(students, grouping_variables, "ever" = n()) %>%
        print()
#> # A tibble: 63 x 4
#>    program           race            sex     ever
#>    <chr>             <chr>           <chr>  <int>
#>  1 Civil Engineering Asian           Female    22
#>  2 Civil Engineering Asian           Male      53
#>  3 Civil Engineering Black           Female    71
#>  4 Civil Engineering Black           Male     131
#>  5 Civil Engineering Hispanic        Female    15
#>  6 Civil Engineering Hispanic        Male      85
#>  7 Civil Engineering International   Female     2
#>  8 Civil Engineering International   Male      20
#>  9 Civil Engineering Native American Male       7
#> 10 Civil Engineering Other           Female    11
#> 11 Civil Engineering Other           Male      29
#> 12 Civil Engineering Unknown         Female     2
#> # ... with 51 more rows
…
Repeat for graduating students

grad_filter() extracts a subset of the midfielddegrees data containing the unique students ever graduating from the programs listed in program_series.

The procedure for gathering graduates is nearly identical to the procedure for gathering the ever-enrolled. We use grad_filter() to search the midfielddegrees dataset using the same filter_by argument; we join race, sex, and program in the same way; and when we count students, the totals are assigned to the new variable grad.

Reminder that in a sequence of operations using the pipe operator (%>%), the outcome of the one operation is assigned to the first argument of the next operation using the dot (.) argument.

# count students graduating from programs
graduated <- grad_filter(filter_by = program_series) %>%
        race_sex_join() %>% 
        left_join(program_group, by = "cip6") %>%
        group_summarize(., grouping_variables, "grad" = n()) %>%
        print()
#> # A tibble: 60 x 4
#>    program           race            sex     grad
#>    <chr>             <chr>           <chr>  <int>
#>  1 Civil Engineering Asian           Female    11
#>  2 Civil Engineering Asian           Male      24
#>  3 Civil Engineering Black           Female    21
#>  4 Civil Engineering Black           Male      39
#>  5 Civil Engineering Hispanic        Female     5
#>  6 Civil Engineering Hispanic        Male      30
#>  7 Civil Engineering International   Female     1
#>  8 Civil Engineering International   Male       5
#>  9 Civil Engineering Native American Male       3
#> 10 Civil Engineering Other           Female     1
#> 11 Civil Engineering Other           Male       8
#> 12 Civil Engineering Unknown         Female     1
#> # ... with 48 more rows
…
Open the help page by running

? grad_filter()

 ▲ top of page

Tally stickiness

To set up the stickiness calculation, we join graduated to ever_enrolled by program, race, and sex.

stickiness <- left_join(ever_enrolled, graduated, by = grouping_variables) %>%
        print()
#> # A tibble: 63 x 5
#>    program           race            sex     ever  grad
#>    <chr>             <chr>           <chr>  <int> <int>
#>  1 Civil Engineering Asian           Female    22    11
#>  2 Civil Engineering Asian           Male      53    24
#>  3 Civil Engineering Black           Female    71    21
#>  4 Civil Engineering Black           Male     131    39
#>  5 Civil Engineering Hispanic        Female    15     5
#>  6 Civil Engineering Hispanic        Male      85    30
#>  7 Civil Engineering International   Female     2     1
#>  8 Civil Engineering International   Male      20     5
#>  9 Civil Engineering Native American Male       7     3
#> 10 Civil Engineering Other           Female    11     1
#> 11 Civil Engineering Other           Male      29     8
#> 12 Civil Engineering Unknown         Female     2     1
#> # ... with 51 more rows

We suggest omitting observations with 5 or fewer students ever enrolled.

stickiness <- filter(stickiness, ever > 5)

Finally, we create stick, the ratio of grad to ever. Stickiness is reported as a fraction between 0 and 1.

# tally stickiness
stickiness <- stickiness %>%
        mutate(stick = round(grad / ever, 3)) %>%
        print()
#> # A tibble: 54 x 6
#>    program           race            sex     ever  grad stick
#>    <chr>             <chr>           <chr>  <int> <int> <dbl>
#>  1 Civil Engineering Asian           Female    22    11 0.5  
#>  2 Civil Engineering Asian           Male      53    24 0.453
#>  3 Civil Engineering Black           Female    71    21 0.296
#>  4 Civil Engineering Black           Male     131    39 0.298
#>  5 Civil Engineering Hispanic        Female    15     5 0.333
#>  6 Civil Engineering Hispanic        Male      85    30 0.353
#>  7 Civil Engineering International   Male      20     5 0.25 
#>  8 Civil Engineering Native American Male       7     3 0.429
#>  9 Civil Engineering Other           Female    11     1 0.091
#> 10 Civil Engineering Other           Male      29     8 0.276
#> # ... with 44 more rows
…
We use:

mutate() (a dplyr function) to create a new variable

str_c() (a stringr function) to combine the race and sex strings

select() (a dplyr function) to keep three variables only

# create the race_sex variable
stickiness_mw <- stickiness_mw %>%
        mutate(race_sex = str_c(race, sex, sep = " ")) %>%
        select(program, race_sex, stick) %>%
        print()
#> # A tibble: 36 x 3
#>    program                race_sex             stick
#>    <chr>                  <chr>                <dbl>
#>  1 Civil Engineering      Asian Female         0.5  
#>  2 Civil Engineering      Asian Male           0.453
#>  3 Civil Engineering      Black Female         0.296
#>  4 Civil Engineering      Black Male           0.298
#>  5 Civil Engineering      Hispanic Female      0.333
#>  6 Civil Engineering      Hispanic Male        0.353
#>  7 Civil Engineering      Native American Male 0.429
#>  8 Civil Engineering      White Female         0.435
#>  9 Civil Engineering      White Male           0.478
#> 10 Electrical Engineering Asian Female         0.44 
#> # ... with 26 more rows

multiway_order() converts the character variables program and race_sex into factors and orders the levels of the two factors by the relevant stickiness medians. glimpse() shows that the two categorical variables are now factors.

# convert the data to a multiway structure
stickiness_mw <- multiway_order(stickiness_mw) %>%
        print()
#> # A tibble: 36 x 3
#>    program                race_sex             stick
#>    <fct>                  <fct>                <dbl>
#>  1 Civil Engineering      Asian Female         0.5  
#>  2 Civil Engineering      Asian Male           0.453
#>  3 Civil Engineering      Black Female         0.296
#>  4 Civil Engineering      Black Male           0.298
#>  5 Civil Engineering      Hispanic Female      0.333
#>  6 Civil Engineering      Hispanic Male        0.353
#>  7 Civil Engineering      Native American Male 0.429
#>  8 Civil Engineering      White Female         0.435
#>  9 Civil Engineering      White Male           0.478
#> 10 Electrical Engineering Asian Female         0.44 
#> # ... with 26 more rows
…
