…
Users can transform midfieldr data frames to tidyverse-style tibbles if
they prefer. One of the distinguishing attributes of tibbles (and
data.tables as well) is their particular format for displaying data
frames.

``` r
library(tibble)
student_tbl <- as_tibble(student)
class(student_tbl)
#> [1] "tbl_df"     "tbl"        "data.frame"

student_tbl
#> # A tibble: 97,555 × 13
#>    mcid      institution transfer hours_transfer race  sex   age_desc us_citizen
#>    <chr>     <chr>       <chr>             <dbl> <chr> <chr> <chr>    <chr>     
#>  1 MCID3111… Institutio… First-T…             NA Asian Male  Under 25 Yes       
#>  2 MCID3111… Institutio… First-T…             NA Asian Fema… Under 25 Yes       
#>  3 MCID3111… Institutio… First-T…             NA Asian Male  Under 25 Yes       
#>  4 MCID3111… Institutio… First-T…             NA Asian Male  Under 25 Yes       
#>  5 MCID3111… Institutio… First-T…             NA Asian Male  Under 25 Yes       
#>  6 MCID3111… Institutio… First-T…             NA Asian Male  Under 25 Yes       
#>  7 MCID3111… Institutio… First-T…             NA Black Male  Under 25 Yes       
#>  8 MCID3111… Institutio… First-T…             NA Hisp… Fema… Under 25 Yes       
#>  9 MCID3111… Institutio… First-T…             NA Hisp… Male  25 and … Yes       
#> 10 MCID3111… Institutio… First-T…             NA Hisp… Male  Under 25 Yes       
#> # ℹ 97,545 more rows
#> # ℹ 5 more variables: home_zip <chr>, high_school <chr>, sat_math <dbl>,
#> #   sat_verbal <dbl>, act_comp <dbl>
```
…
