Tools for Student Records Research • midfieldr
…
library(midfieldr)
library(tidyverse)

Select programs to study

In this example we compare the stickiness of three engineering programs: Chemical, Electrical, and Industrial.

We use cip_filter() to search first for “Engineering” and then filter the result for “Chemical”, “Electrical”, and “Industrial”. The results show that the 2-digit code “14” describes Engineering programs (wht we want) while “15” denotes Engineering Technology programs (not what we want).

search_results <- cip_filter(series = "Engineering") %>% 
    cip_filter(series = c("Chemical", "Electrical", "Industrial"))

search_results
#> # A tibble: 24 x 6
#>    cip2  cip2name               cip4  cip4name       cip6  cip6name       
#>    <chr> <chr>                  <chr> <chr>          <chr> <chr>          
#>  1 14    Engineering            1407  Chemical Engi~ 1407~ Chemical Engin~
#>  2 14    Engineering            1407  Chemical Engi~ 1407~ Chemical and B~
#>  3 14    Engineering            1407  Chemical Engi~ 1407~ Chemical Engin~
#>  4 14    Engineering            1410  Electrical/El~ 1410~ Electrical/Ele~
#>  5 14    Engineering            1410  Electrical/El~ 1410~ Laser and Opti~
#>  6 14    Engineering            1410  Electrical/El~ 1410~ Telecommunicat~
#>  7 14    Engineering            1410  Electrical/El~ 1410~ Electrical/Ele~
#>  8 14    Engineering            1435  Industrial En~ 1435~ Industrial Eng~
#>  9 15    Engineering Technology 1503  Electrical En~ 1503~ Electrical/Ele~
#> 10 15    Engineering Technology 1503  Electrical En~ 1503~ Laser and Opti~
#> 11 15    Engineering Technology 1503  Electrical En~ 1503~ Telecommunicat~
#> 12 15    Engineering Technology 1503  Electrical En~ 1503~ Integrated Cir~
#> # ... with 12 more rows
…
