…
***midfieldr and tibbles.***   Knowing that some of our users prefer
tibbles (from the tidyverse package) to data.tables, midfieldr functions
do attempt to return data frames of the same class as the input. So if
we convert `degree` to a tibble,

``` r

library(tibble)
degree_tbl <- as_tibble(degree)

degree_tbl
#> # A tibble: 49,665 × 5
#>    mcid           institution   term_degree cip6   degree                       
#>    <chr>          <chr>         <chr>       <chr>  <chr>                        
#>  1 MCID3111142225 Institution B 19881       141001 Bachelor of Science in Elect…
#>  2 MCID3111142290 Institution J 19921       141001 Bachelor of Science in Elect…
#>  3 MCID3111142294 Institution J 19903       141001 Bachelor of Science in Elect…
#>  4 MCID3111142299 Institution J 19921       141001 Bachelor of Science in Elect…
#>  5 MCID3111142689 Institution B 19913       090401 Bachelor of Arts in Journali…
#>  6 MCID3111142729 Institution B 19883       141901 Bachelor of Science in Mecha…
#>  7 MCID3111142775 Institution J 19901       141001 Bachelor of Science in Elect…
#>  8 MCID3111142782 Institution J 19903       260101 Bachelor of Science in Biolo…
#>  9 MCID3111142784 Institution J 19911       521401 Bachelor of Science in Marke…
#> 10 MCID3111142840 Institution B 19901       540101 Bachelor of Arts in History  
#> # ℹ 49,655 more rows
```

and use it as an input value, a midfieldr function (in most cases)
yields a tibble output.

``` r

select_basic_cols(degree_tbl)
#> # A tibble: 49,665 × 4
#>    mcid           institution   term_degree cip6  
#>    <chr>          <chr>         <chr>       <chr> 
#>  1 MCID3111142225 Institution B 19881       141001
#>  2 MCID3111142290 Institution J 19921       141001
#>  3 MCID3111142294 Institution J 19903       141001
#>  4 MCID3111142299 Institution J 19921       141001
#>  5 MCID3111142689 Institution B 19913       090401
#>  6 MCID3111142729 Institution B 19883       141901
#>  7 MCID3111142775 Institution J 19901       141001
#>  8 MCID3111142782 Institution J 19903       260101
#>  9 MCID3111142784 Institution J 19911       521401
#> 10 MCID3111142840 Institution B 19901       540101
#> # ℹ 49,655 more rows
```
…
