Case study using dplyr • midfieldr
…
Knowing the 2-digit code for Engineering programs, our next search is
for lines that start with “14”. The result is an Engineering subset of
cip with 54 rows.

cip |>
  filter_programs("^14")
#> # A tibble: 54 × 6
#>   cip6name                                                     cip6  
#>   <chr>                                                        <chr> 
#> 1 Engineering, General                                         140101
#> 2 Pre-Engineering                                              140102
#> 3 Aerospace, Aeronautical and Astronautical, Space Engineering 140201
#> 4 Agricultural, Biological Engineering and Bioengineering      140301
#> 5 Architectural Engineering                                    140401
#>   cip4name                                                cip4  cip2name   
#>   <chr>                                                   <chr> <chr>      
#> 1 Engineering, General                                    1401  Engineering
#> 2 Engineering, General                                    1401  Engineering
#> 3 Aerospace, Aeronautical and Astronautical Engineering   1402  Engineering
#> 4 Agricultural, Biological Engineering and Bioengineering 1403  Engineering
#> 5 Architectural Engineering                               1404  Engineering
#>   cip2 
#>   <chr>
#> 1 14   
#> 2 14   
#> 3 14   
#> 4 14   
#> 5 14   
#> # ℹ 49 more rows
…
Industrial/Systems Engineering 1427, 1435, 1436, and 1437.

Construct the programs table

To collect all our 6-digit codes, we create a search string of the
desired 4-digit codes. We drop all columns except the 6-digit names and
6-digit codes.

codes_we_want <- c("^1408", "^1410", "^1419", "^1427", "^1435", "^1436", "^1437")
programs <- cip |>
  filter_programs(codes_we_want) |>
  select(cip6name, cip6)

programs
#> # A tibble: 15 × 2
#>   cip6name                               cip6  
#>   <chr>                                  <chr> 
#> 1 Civil Engineering, General             140801
#> 2 Geotechnical Engineering               140802
#> 3 Structural Engineering                 140803
#> 4 Transportation and Highway Engineering 140804
#> 5 Water Resources Engineering            140805
#> # ℹ 10 more rows
…
programs <- programs |>
  mutate(program = case_when(
    grepl("^1408", cip6) ~ "CE",
    grepl("^1410", cip6) ~ "EE",
    grepl("^1419", cip6) ~ "ME",
    grepl("^1427|^1435|^1436|^1437", cip6) ~ "ISE"
  )) |>
  mutate(across(cip6name, \(x) str_replace(x, "Engineering", "Engng"))) |>
  mutate(across(cip6name, \(x) str_replace(x, "Communication", "Commn")))

programs
#> # A tibble: 15 × 3
#>   cip6name                         cip6   program
#>   <chr>                            <chr>  <chr>  
#> 1 Civil Engng, General             140801 CE     
#> 2 Geotechnical Engng               140802 CE     
#> 3 Structural Engng                 140803 CE     
#> 4 Transportation and Highway Engng 140804 CE     
#> 5 Water Resources Engng            140805 CE     
#> # ℹ 10 more rows
…
x <- student

class(x)
#> [1] "tbl_df"     "tbl"        "data.frame"

y <- as.data.frame(x)
class(y)
#> [1] "data.frame"
data.table::setattr(y, "class", c("tbl_df", "tbl", "data.frame"))
class(y)
#> [1] "tbl_df"     "tbl"        "data.frame"

y
#> # A tibble: 97,555 × 3
#>   mcid           race  sex   
#>   <chr>          <chr> <chr> 
#> 1 MCID3111142225 Asian Male  
#> 2 MCID3111142283 Asian Female
#> 3 MCID3111142290 Asian Male  
#> 4 MCID3111142294 Asian Male  
#> 5 MCID3111142299 Asian Male  
#> # ℹ 97,550 more rows
…
Filter for data sufficiency

The next few steps are easier to follow if we start with the unique
IDs from our current term table as our draft population. We filter these
IDs for data sufficiency and degree-seeking, then filter the records to
retain those IDs only.

DT <- term |>
  select(mcid) |>
  unique()
DT
#> # A tibble: 97,536 × 1
#>   mcid          
#>   <chr>         
#> 1 MCID3111142225
#> 2 MCID3111142283
#> 3 MCID3111142290
#> 4 MCID3111142294
#> 5 MCID3111142299
#> # ℹ 97,531 more rows

The data sufficiency criterion limits student records to those for
which available data are sufficient to credibly assess timely
completion. To make that assessment, we need the last term in which a
student’s degree completion would be considered timely—in many cases, 6
years after admission.

timely_term() adds a column of timely completion terms,
encoded YYYYT.

DT <- timely_term(DT)
DT
#> # A tibble: 97,536 × 5
#>   mcid           term_i level_i       adj_span timely_term
#>   <chr>          <chr>  <chr>            <dbl> <chr>      
#> 1 MCID3111142225 19881  01 First-year        6 19933      
#> 2 MCID3111142283 19881  01 First-year        6 19933      
#> 3 MCID3111142290 19881  01 First-year        6 19933      
#> 4 MCID3111142294 19881  01 First-year        6 19933      
#> 5 MCID3111142299 19881  01 First-year        6 19933      
#> # ℹ 97,531 more rows

data_sufficiency() (which requires the
timely_term column) adds a column of labels indicating that
a student ID should be included (or excluded) because for that student,
the institution’s data range satisfies (or does not satisfy) the data
sufficiency criteria.

DT <- data_sufficiency(DT)
DT
#> # A tibble: 632,917 × 7
#>   mcid           term_i timely_term institution   lower_limit upper_limit
#>   <chr>          <chr>  <chr>       <chr>         <chr>       <chr>      
#> 1 MCID3111142225 19881  19933       Institution B 19881       20181      
#> 2 MCID3111142283 19881  19933       Institution J 19881       20096      
#> 3 MCID3111142283 19881  19933       Institution J 19881       20096      
#> 4 MCID3111142283 19881  19933       Institution J 19881       20096      
#> 5 MCID3111142283 19881  19933       Institution J 19881       20096      
#>   data_sufficiency
#>   <chr>           
#> 1 exclude-lower   
#> 2 exclude-lower   
#> 3 exclude-lower   
#> 4 exclude-lower   
#> 5 exclude-lower   
#> # ℹ 632,912 more rows
…
We retain the rows labeled “include” for which we have sufficient
data from the institution and retain the ID column only.

DT <- DT |>
  filter(data_sufficiency == "include") |>
  select(mcid)
DT
#> # A tibble: 525,446 × 1
#>   mcid          
#>   <chr>         
#> 1 MCID3111142689
#> 2 MCID3111142782
#> 3 MCID3111142782
#> 4 MCID3111142782
#> 5 MCID3111142782
#> # ℹ 525,441 more rows

Filter for degree seeking

We require all students in our study to be degree-seeking. By design,
the student table contains only degree-seeking students. We
inner-join the ID column from the student table, matching
on mcid. In effect, the inner join filters our population
to remove any non-degree-seeking students.

DT <- inner_join(DT, student, by = join_by(mcid)) |>
  select(mcid)
DT
#> # A tibble: 525,446 × 1
#>   mcid          
#>   <chr>         
#> 1 MCID3111142689
#> 2 MCID3111142782
#> 3 MCID3111142782
#> 4 MCID3111142782
#> 5 MCID3111142782
#> # ℹ 525,441 more rows

It happens that all students in this case are degree-seeking, so this
step did not reduce the size of our population. (We include the step to
illustrate our complete process.)

Finalize the records

The previous column of IDs is our baseline population.

population <- unique(DT)
population
#> # A tibble: 76,865 × 1
#>   mcid          
#>   <chr>         
#> 1 MCID3111142689
#> 2 MCID3111142782
#> 3 MCID3111142881
#> 4 MCID3111142884
#> 5 MCID3111142893
#> # ℹ 76,860 more rows
…
We have a lot of flexibility in the order in which we construct our
blocs and groupings, so what follows is only one of several effective
solutions. Our approach here is to construct a bloc, filter by program,
join the demographics, and repeat for the next bloc.

Timely graduates

We start with the baseline population. Like we did with the original
source data files, we copy it to protect population from
“by reference” changes.

DT <- population
DT
#> # A tibble: 76,865 × 1
#>   mcid          
#>   <chr>         
#> 1 MCID3111142689
#> 2 MCID3111142782
#> 3 MCID3111142881
#> 4 MCID3111142884
#> 5 MCID3111142893
#> # ℹ 76,860 more rows
Filter for timely completion

We want to retain timely graduates, so first we add the timely
completion term (the same term we used for determining data sufficiency)
to our population then apply the completion status function.

completion_status() adds a column of labels indicating
that program completion was timely, late, or NA (for
non-completers).

DT <- DT |>
  timely_term() |>
  completion_status()
DT
#> # A tibble: 76,865 × 4
#>   mcid           timely_term term_degree completion_status
#>   <chr>          <chr>       <chr>       <chr>            
#> 1 MCID3111142689 19941       19913       timely           
#> 2 MCID3111142782 19941       19903       timely           
#> 3 MCID3111142881 19951       19894       timely           
#> 4 MCID3111142884 19941       NA          NA               
#> 5 MCID3111142893 19941       NA          NA               
#> # ℹ 76,860 more rows
…
We retain the rows labeled “timely” and the drop all the columns
except the ID column.

DT <- DT |>
  filter(completion_status == "timely") |>
  select(mcid)
DT
#> # A tibble: 40,430 × 1
#>   mcid          
#>   <chr>         
#> 1 MCID3111142689
#> 2 MCID3111142782
#> 3 MCID3111142881
#> 4 MCID3111142965
#> 5 MCID3111143066
#> # ℹ 40,425 more rows

Filter by program

We left-join the CIP column from the degree table,
matching on mcid. That we increase the number of rows
indicates that some students have more than one degree in their first
degree term.

degree_cols <- degree |>
  select(mcid, cip6)
DT <- left_join(DT, degree_cols, by = join_by(mcid))
DT
#> # A tibble: 40,490 × 2
#>   mcid           cip6  
#>   <chr>          <chr> 
#> 1 MCID3111142689 090401
#> 2 MCID3111142782 260101
#> 3 MCID3111142881 450601
#> 4 MCID3111142965 141001
#> 5 MCID3111143066 090401
#> # ℹ 40,485 more rows

Now we use an inner-join with our programs data frame,
matching on cip6, to retain only those students who
complete one of our study programs. We retain the program
column and drop the cip6 column.

programs_cols <- programs |>
  select(cip6, program)
DT <- inner_join(DT, programs_cols, by = join_by(cip6)) |>
  select(-cip6)
DT
#> # A tibble: 3,263 × 2
#>   mcid           program
#>   <chr>          <chr>  
#> 1 MCID3111142965 EE     
#> 2 MCID3111145102 EE     
#> 3 MCID3111146537 EE     
#> 4 MCID3111146674 EE     
#> 5 MCID3111150194 ISE    
#> # ℹ 3,258 more rows
…
Join demographics

To add columns for student demographics, we left-join selected
columns from the student table, matching on
mcid.

student_cols <- student |>
  select(mcid, race, sex)
DT <- left_join(DT, student_cols, by = join_by(mcid))
DT
#> # A tibble: 3,263 × 4
#>   mcid           program race          sex   
#>   <chr>          <chr>   <chr>         <chr> 
#> 1 MCID3111142965 EE      International Male  
#> 2 MCID3111145102 EE      White         Male  
#> 3 MCID3111146537 EE      Asian         Female
#> 4 MCID3111146674 EE      Asian         Male  
#> 5 MCID3111150194 ISE     Black         Male  
#> # ℹ 3,258 more rows

Bloc of timely graduates

This is the bloc of timely graduates required by our metric. We add a
bloc variable with the value “grad” and ensure we have
unique rows.

graduates <- DT |>
  mutate(bloc = "grad") |>
  unique()

graduates
#> # A tibble: 3,263 × 5
#>   mcid           program race          sex    bloc 
#>   <chr>          <chr>   <chr>         <chr>  <chr>
#> 1 MCID3111142965 EE      International Male   grad 
#> 2 MCID3111145102 EE      White         Male   grad 
#> 3 MCID3111146537 EE      Asian         Female grad 
#> 4 MCID3111146674 EE      Asian         Male   grad 
#> 5 MCID3111150194 ISE     Black         Male   grad 
#> # ℹ 3,258 more rows

Ever enrolled

Again we start with the baseline population.

DT <- population
DT
#> # A tibble: 76,865 × 1
#>   mcid          
#>   <chr>         
#> 1 MCID3111142689
#> 2 MCID3111142782
#> 3 MCID3111142881
#> 4 MCID3111142884
#> 5 MCID3111142893
#> # ℹ 76,860 more rows

Filter by program

We left-join the CIP column from the term table,
matching on mcid.

term_cols <- term |>
  select(mcid, cip6) |>
  unique()
DT <- left_join(DT, term_cols, by = join_by(mcid))
DT
#> # A tibble: 126,168 × 2
#>   mcid           cip6  
#>   <chr>          <chr> 
#> 1 MCID3111142689 090401
#> 2 MCID3111142782 260101
#> 3 MCID3111142881 450601
#> 4 MCID3111142884 260406
#> 5 MCID3111142893 400801
#> # ℹ 126,163 more rows

We repeat the process we used earlier to inner-join our
programs data frame, matching on cip6.

programs_cols <- programs |>
  select(cip6, program)
DT <- inner_join(DT, programs_cols, by = join_by(cip6)) |>
  select(-cip6)
DT
#> # A tibble: 5,583 × 2
#>   mcid           program
#>   <chr>          <chr>  
#> 1 MCID3111142965 EE     
#> 2 MCID3111145102 EE     
#> 3 MCID3111146537 EE     
#> 4 MCID3111146674 EE     
#> 5 MCID3111150194 ISE    
#> # ℹ 5,578 more rows

With the CIP code removed, we filter for unique rows. This is an
important step because a student may switch CIP codes yet stay within a
program as defined by our custom labels. We want to avoid counting that
student as ever-enrolled more than once.

DT <- unique(DT)
DT
#> # A tibble: 5,583 × 2
#>   mcid           program
#>   <chr>          <chr>  
#> 1 MCID3111142965 EE     
#> 2 MCID3111145102 EE     
#> 3 MCID3111146537 EE     
#> 4 MCID3111146674 EE     
#> 5 MCID3111150194 ISE    
#> # ℹ 5,578 more rows
…
Join demographics

Again, we left-join selected columns from the student
table, matching on mcid.

student_cols <- student |>
  select(mcid, race, sex)
DT <- left_join(DT, student_cols, by = join_by(mcid))
DT
#> # A tibble: 5,583 × 4
#>   mcid           program race          sex   
#>   <chr>          <chr>   <chr>         <chr> 
#> 1 MCID3111142965 EE      International Male  
#> 2 MCID3111145102 EE      White         Male  
#> 3 MCID3111146537 EE      Asian         Female
#> 4 MCID3111146674 EE      Asian         Male  
#> 5 MCID3111150194 ISE     Black         Male  
#> # ℹ 5,578 more rows

Bloc of ever-enrolled

This is the bloc of students ever enrolled in our programs required
by our metric. We add a bloc variable with the value “ever”
and ensure we have unique rows.

ever_enrolled <- DT |>
  mutate(bloc = "ever") |>
  unique()

ever_enrolled
#> # A tibble: 5,583 × 5
#>   mcid           program race          sex    bloc 
#>   <chr>          <chr>   <chr>         <chr>  <chr>
#> 1 MCID3111142965 EE      International Male   ever 
#> 2 MCID3111145102 EE      White         Male   ever 
#> 3 MCID3111146537 EE      Asian         Female ever 
#> 4 MCID3111146674 EE      Asian         Male   ever 
#> 5 MCID3111150194 ISE     Black         Male   ever 
#> # ℹ 5,578 more rows

Outcomes

Combining the two data frames (blocs) by rows, we obtain the data
structure we need for grouping and summarizing.

DT <- bind_rows(graduates, ever_enrolled)
DT
#> # A tibble: 8,846 × 5
#>   mcid           program race          sex    bloc 
#>   <chr>          <chr>   <chr>         <chr>  <chr>
#> 1 MCID3111142965 EE      International Male   grad 
#> 2 MCID3111145102 EE      White         Male   grad 
#> 3 MCID3111146537 EE      Asian         Female grad 
#> 4 MCID3111146674 EE      Asian         Male   grad 
#> 5 MCID3111150194 ISE     Black         Male   grad 
#> # ℹ 8,841 more rows

Group and summarize

Count the numbers of observations for each combination of the
grouping variables.

DT <- DT %>%
  count(bloc, program, race, sex, name = "N")
DT
#> # A tibble: 98 × 5
#>   bloc  program race     sex        N
#>   <chr> <chr>   <chr>    <chr>  <int>
#> 1 ever  CE      Asian    Female    14
#> 2 ever  CE      Asian    Male      30
#> 3 ever  CE      Black    Female     4
#> 4 ever  CE      Black    Male       8
#> 5 ever  CE      Hispanic Female    13
#> # ℹ 93 more rows
…
DT <- DT |>
  pivot_wider(
    names_from = bloc,
    values_from = N,
    values_fill = 0
  )
DT
#> # A tibble: 50 × 5
#>   program race     sex     ever  grad
#>   <chr>   <chr>    <chr>  <int> <int>
#> 1 CE      Asian    Female    14    10
#> 2 CE      Asian    Male      30    25
#> 3 CE      Black    Female     4     1
#> 4 CE      Black    Male       8     5
#> 5 CE      Hispanic Female    13     6
#> # ℹ 45 more rows

Calculate the metric

Completes the initial analysis.

Stickiness is the ratio of the number of graduates to the number ever
enrolled, expressed as a percentage. Stickiness is calculated for each
combination of program, race/ethnicity, and sex.

DT <- DT |>
  mutate(stickiness = round(100 * grad / ever, 1))
DT
#> # A tibble: 50 × 6
#>   program race     sex     ever  grad stickiness
#>   <chr>   <chr>    <chr>  <int> <int>      <dbl>
#> 1 CE      Asian    Female    14    10       71.4
#> 2 CE      Asian    Male      30    25       83.3
#> 3 CE      Black    Female     4     1       25  
#> 4 CE      Black    Male       8     5       62.5
#> 5 CE      Hispanic Female    13     6       46.2
#> # ℹ 45 more rows
Dissemination

We take several additional steps before disseminating these
results.

To preserve the anonymity of the people involved, we remove
observations with \small N or fewer
observations. When dealing with the full MIDFIELD research data, we
typically use \small N = 10, but for
these practice data we illustrate the procedure using \small N = 3.

DT <- DT |>
  filter(grad > 3)
DT
#> # A tibble: 37 × 6
#>   program race     sex     ever  grad stickiness
#>   <chr>   <chr>    <chr>  <int> <int>      <dbl>
#> 1 CE      Asian    Female    14    10       71.4
#> 2 CE      Asian    Male      30    25       83.3
#> 3 CE      Black    Male       8     5       62.5
#> 4 CE      Hispanic Female    13     6       46.2
#> 5 CE      Hispanic Male      66    31       47  
#> # ℹ 32 more rows

We have found it useful to report such data with a variable that
combines race/ethnicity and sex.

DT <- DT |>
  mutate(people = paste(race, sex)) |>
  select(program, race, sex, people, everything())
DT
#> # A tibble: 37 × 7
#>   program race     sex    people           ever  grad stickiness
#>   <chr>   <chr>    <chr>  <chr>           <int> <int>      <dbl>
#> 1 CE      Asian    Female Asian Female       14    10       71.4
#> 2 CE      Asian    Male   Asian Male         30    25       83.3
#> 3 CE      Black    Male   Black Male          8     5       62.5
#> 4 CE      Hispanic Female Hispanic Female    13     6       46.2
#> 5 CE      Hispanic Male   Hispanic Male      66    31       47  
#> # ℹ 32 more rows

Readers can more readily interpret our charts and tables if the
programs are unabbreviated.

DT <- DT |>
  mutate(program = case_when(
    program == "CE" ~ "Civil",
    program == "EE" ~ "Electrical",
    program == "ME" ~ "Mechanical",
    program == "ISE" ~ "Industrial"
  ))
DT
#> # A tibble: 37 × 7
#>   program race     sex    people           ever  grad stickiness
#>   <chr>   <chr>    <chr>  <chr>           <int> <int>      <dbl>
#> 1 Civil   Asian    Female Asian Female       14    10       71.4
#> 2 Civil   Asian    Male   Asian Male         30    25       83.3
#> 3 Civil   Black    Male   Black Male          8     5       62.5
#> 4 Civil   Hispanic Female Hispanic Female    13     6       46.2
#> 5 Civil   Hispanic Male   Hispanic Male      66    31       47  
#> # ℹ 32 more rows

Table

Omit columns that won’t appear in the table.

DT_table <- DT |>
  select(program, people, stickiness)
DT_table
#> # A tibble: 37 × 3
#>   program people          stickiness
#>   <chr>   <chr>                <dbl>
#> 1 Civil   Asian Female          71.4
#> 2 Civil   Asian Male            83.3
#> 3 Civil   Black Male            62.5
#> 4 Civil   Hispanic Female       46.2
#> 5 Civil   Hispanic Male         47  
#> # ℹ 32 more rows
…
