Introduction to midfieldr • midfieldr
…
midfieldr and tibbles.   midfieldr functions attempt to
return data frames of the same class as the input, so a data.table input
should produce a data.table output, a tibble input should produce a
tibble output, etc. Grouped tibbles, however, are returned as
data.frames. To help ensure a tibble output, try ungrouping a tibble
before using it as an input argument.

library(tibble)
student <- as_tibble(student)

class(student)
#> [1] "tbl_df"     "tbl"        "data.frame"

student
#> # A tibble: 97,555 × 13
#>    mcid      institution transfer hours_transfer race  sex   age_desc us_citizen
#>    <chr>     <chr>       <chr>             <dbl> <chr> <chr> <chr>    <chr>     
#>  1 MCID3111… Institutio… First-T…             NA Asian Male  Under 25 Yes       
#>  2 MCID3111… Institutio… First-T…             NA Asian Fema… Under 25 Yes       
#>  3 MCID3111… Institutio… First-T…             NA Asian Male  Under 25 Yes       
#>  4 MCID3111… Institutio… First-T…             NA Asian Male  Under 25 Yes       
#>  5 MCID3111… Institutio… First-T…             NA Asian Male  Under 25 Yes       
#>  6 MCID3111… Institutio… First-T…             NA Asian Male  Under 25 Yes       
#>  7 MCID3111… Institutio… First-T…             NA Black Male  Under 25 Yes       
#>  8 MCID3111… Institutio… First-T…             NA Hisp… Fema… Under 25 Yes       
#>  9 MCID3111… Institutio… First-T…             NA Hisp… Male  25 and … Yes       
#> 10 MCID3111… Institutio… First-T…             NA Hisp… Male  Under 25 Yes       
#> # ℹ 97,545 more rows
#> # ℹ 5 more variables: home_zip <chr>, high_school <chr>, sat_math <dbl>,
#> #   sat_verbal <dbl>, act_comp <dbl>

# tibble input yields a tibble output
select_basic_cols(student)
#> # A tibble: 97,555 × 4
#>    mcid           institution   race     sex   
#>    <chr>          <chr>         <chr>    <chr> 
#>  1 MCID3111142225 Institution B Asian    Male  
#>  2 MCID3111142283 Institution J Asian    Female
#>  3 MCID3111142290 Institution J Asian    Male  
#>  4 MCID3111142294 Institution J Asian    Male  
#>  5 MCID3111142299 Institution J Asian    Male  
#>  6 MCID3111142303 Institution J Asian    Male  
#>  7 MCID3111142633 Institution J Black    Male  
#>  8 MCID3111142689 Institution B Hispanic Female
#>  9 MCID3111142729 Institution B Hispanic Male  
#> 10 MCID3111142775 Institution J Hispanic Male  
#> # ℹ 97,545 more rows
…
