…
Knowing the 2-digit code for Engineering programs, our next search is
for lines that start with “14”. The result is an Engineering subset of
`cip` with 54 rows.

``` r

engr_cip <- filter_cip("^14", cip = cip)
engr_cip
#> # A tibble: 54 × 6
#>    cip6name                                  cip6  cip4name cip4  cip2name cip2 
#>    <chr>                                     <chr> <chr>    <chr> <chr>    <chr>
#>  1 Engineering, General                      1401… Enginee… 1401  Enginee… 14   
#>  2 Pre-Engineering                           1401… Enginee… 1401  Enginee… 14   
#>  3 Aerospace, Aeronautical and Astronautica… 1402… Aerospa… 1402  Enginee… 14   
#>  4 Agricultural, Biological Engineering and… 1403… Agricul… 1403  Enginee… 14   
#>  5 Architectural Engineering                 1404… Archite… 1404  Enginee… 14   
#>  6 Biomedical, Medical Engineering           1405… Biomedi… 1405  Enginee… 14   
#>  7 Ceramic Sciences and Engineering          1406… Ceramic… 1406  Enginee… 14   
#>  8 Chemical Engineering                      1407… Chemica… 1407  Enginee… 14   
#>  9 Chemical and Biomolecular Engineering     1407… Chemica… 1407  Enginee… 14   
#> 10 Chemical Engineering, Other               1407… Chemica… 1407  Enginee… 14   
#> # ℹ 44 more rows
```
…
### *Filter for data sufficiency*

The next few steps are easier to follow if we start with the unique IDs
from our current term table as our draft population. We filter these IDs
for data sufficiency and degree-seeking, then filter the records to
retain those IDs only.

``` r

DT <- term |>
  select(mcid) |>
  unique()
DT
#> # A tibble: 97,536 × 1
#>    mcid          
#>    <chr>         
#>  1 MCID3111142225
#>  2 MCID3111142283
#>  3 MCID3111142290
#>  4 MCID3111142294
#>  5 MCID3111142299
#>  6 MCID3111142303
#>  7 MCID3111142633
#>  8 MCID3111142689
#>  9 MCID3111142729
#> 10 MCID3111142775
#> # ℹ 97,526 more rows
```

The data sufficiency criterion limits student records to those for which
available data are sufficient to credibly assess timely completion. To
make that assessment, we need the last term in which a student’s degree
completion would be considered timely—in many cases, 6 years after
admission.

[`add_timely_term()`](https://midfieldr.github.io/midfieldr/reference/add_timely_term.md)
adds a column of timely completion terms, encoded YYYYT.

``` r

DT <- add_timely_term(DT)
DT
#> # A tibble: 97,536 × 5
#>    mcid           term_i level_i       adj_span timely_term
#>    <chr>          <chr>  <chr>            <dbl> <chr>      
#>  1 MCID3111142225 19881  01 First-year        6 19933      
#>  2 MCID3111142283 19881  01 First-year        6 19933      
#>  3 MCID3111142290 19881  01 First-year        6 19933      
#>  4 MCID3111142294 19881  01 First-year        6 19933      
#>  5 MCID3111142299 19881  01 First-year        6 19933      
#>  6 MCID3111142303 19881  01 First-year        6 19933      
#>  7 MCID3111142633 19881  01 First-year        6 19933      
#>  8 MCID3111142689 19883  01 First-year        6 19941      
#>  9 MCID3111142729 19881  01 First-year        6 19933      
#> 10 MCID3111142775 19881  01 First-year        6 19933      
#> # ℹ 97,526 more rows
```

[`add_data_sufficiency()`](https://midfieldr.github.io/midfieldr/reference/add_data_sufficiency.md)
(which requires the `timely_term` column) adds a column of labels
indicating that a student ID should be included (or excluded) because
for that student, the institution’s data range satisfies (or does not
satisfy) the data sufficiency criteria.

``` r

DT <- add_data_sufficiency(DT)
DT
#> # A tibble: 97,536 × 8
#>    mcid           level_i    adj_span timely_term term_i lower_limit upper_limit
#>    <chr>          <chr>         <dbl> <chr>       <chr>  <chr>       <chr>      
#>  1 MCID3111142225 01 First-…        6 19933       19881  19881       20181      
#>  2 MCID3111142283 01 First-…        6 19933       19881  19881       20096      
#>  3 MCID3111142290 01 First-…        6 19933       19881  19881       20096      
#>  4 MCID3111142294 01 First-…        6 19933       19881  19881       20096      
#>  5 MCID3111142299 01 First-…        6 19933       19881  19881       20096      
#>  6 MCID3111142303 01 First-…        6 19933       19881  19881       20096      
#>  7 MCID3111142633 01 First-…        6 19933       19881  19881       20096      
#>  8 MCID3111142689 01 First-…        6 19941       19883  19881       20181      
#>  9 MCID3111142729 01 First-…        6 19933       19881  19881       20181      
#> 10 MCID3111142775 01 First-…        6 19933       19881  19881       20096      
#> # ℹ 97,526 more rows
#> # ℹ 1 more variable: data_sufficiency <chr>
```
…
We retain the rows labeled “include” for which we have sufficient data
from the institution and retain the ID column only.

``` r

DT <- DT |>
  filter(data_sufficiency == "include") |>
  select(mcid)
DT
#> # A tibble: 76,865 × 1
#>    mcid          
#>    <chr>         
#>  1 MCID3111142689
#>  2 MCID3111142782
#>  3 MCID3111142881
#>  4 MCID3111142884
#>  5 MCID3111142893
#>  6 MCID3111142962
#>  7 MCID3111142965
#>  8 MCID3111143066
#>  9 MCID3111143068
#> 10 MCID3111143078
#> # ℹ 76,855 more rows
```

### *Filter for degree seeking*

We require all students in our study to be degree-seeking. By design,
the `student` table contains only degree-seeking students. We inner-join
the ID column from the `student` table, matching on `mcid`. In effect,
the inner join filters our population to remove any non-degree-seeking
students.

``` r

DT <- inner_join(DT, student, by = join_by(mcid)) |>
  select(mcid)
DT
#> # A tibble: 76,865 × 1
#>    mcid          
#>    <chr>         
#>  1 MCID3111142689
#>  2 MCID3111142782
#>  3 MCID3111142881
#>  4 MCID3111142884
#>  5 MCID3111142893
#>  6 MCID3111142962
#>  7 MCID3111142965
#>  8 MCID3111143066
#>  9 MCID3111143068
#> 10 MCID3111143078
#> # ℹ 76,855 more rows
```

It happens that all students in this case are degree-seeking, so this
step did not reduce the size of our population. (We include the step to
illustrate our complete process.)

### *Finalize the records*

The previous column of IDs is our baseline population.

``` r

population <- unique(DT)
population
#> # A tibble: 76,865 × 1
#>    mcid          
#>    <chr>         
#>  1 MCID3111142689
#>  2 MCID3111142782
#>  3 MCID3111142881
#>  4 MCID3111142884
#>  5 MCID3111142893
#>  6 MCID3111142962
#>  7 MCID3111142965
#>  8 MCID3111143066
#>  9 MCID3111143068
#> 10 MCID3111143078
#> # ℹ 76,855 more rows
```
…
## Timely graduates

We start with the baseline population. Like we did with the original
source data files, we copy it to protect `population` from “by
reference” changes.

``` r

DT <- population
DT
#> # A tibble: 76,865 × 1
#>    mcid          
#>    <chr>         
#>  1 MCID3111142689
#>  2 MCID3111142782
#>  3 MCID3111142881
#>  4 MCID3111142884
#>  5 MCID3111142893
#>  6 MCID3111142962
#>  7 MCID3111142965
#>  8 MCID3111143066
#>  9 MCID3111143068
#> 10 MCID3111143078
#> # ℹ 76,855 more rows
```
…
We want to retain timely graduates, so first we add the timely
completion term (the same term we used for determining data sufficiency)
to our population then apply the completion status function.

[`add_completion_status()`](https://midfieldr.github.io/midfieldr/reference/add_completion_status.md)
adds a column of labels indicating that program completion was timely,
late, or NA (for non-completers).

``` r

DT <- DT |>
  add_timely_term() |>
  add_completion_status()
DT
#> # A tibble: 76,865 × 7
#>    mcid        term_i level_i adj_span timely_term term_degree completion_status
#>    <chr>       <chr>  <chr>      <dbl> <chr>       <chr>       <chr>            
#>  1 MCID311114… 19883  01 Fir…        6 19941       19913       timely           
#>  2 MCID311114… 19883  01 Fir…        6 19941       19903       timely           
#>  3 MCID311114… 19893  01 Fir…        6 19951       19894       timely           
#>  4 MCID311114… 19883  01 Fir…        6 19941       NA          NA               
#>  5 MCID311114… 19883  01 Fir…        6 19941       NA          NA               
#>  6 MCID311114… 19883  01 Fir…        6 19941       NA          NA               
#>  7 MCID311114… 19883  01 Fir…        6 19941       19901       timely           
#>  8 MCID311114… 19883  01 Fir…        6 19941       19883       timely           
#>  9 MCID311114… 19891  01 Fir…        6 19943       19903       timely           
#> 10 MCID311114… 19883  01 Fir…        6 19941       19891       timely           
#> # ℹ 76,855 more rows
```
…
We retain the rows labeled “timely” and the drop all the columns except
the ID column.

``` r

DT <- DT |>
  filter(completion_status == "timely") |>
  select(mcid)
DT
#> # A tibble: 40,430 × 1
#>    mcid          
#>    <chr>         
#>  1 MCID3111142689
#>  2 MCID3111142782
#>  3 MCID3111142881
#>  4 MCID3111142965
#>  5 MCID3111143066
#>  6 MCID3111143068
#>  7 MCID3111143078
#>  8 MCID3111143126
#>  9 MCID3111143157
#> 10 MCID3111144047
#> # ℹ 40,420 more rows
```

### *Filter by program*

We left-join the CIP column from the `degree` table, matching on `mcid`.
That we increase the number of rows indicates that some students have
more than one degree in their first degree term.

``` r

degree_cols <- degree |>
  select(mcid, cip6)
DT <- left_join(DT, degree_cols, by = join_by(mcid))
DT
#> # A tibble: 40,490 × 2
#>    mcid           cip6  
#>    <chr>          <chr> 
#>  1 MCID3111142689 090401
#>  2 MCID3111142782 260101
#>  3 MCID3111142881 450601
#>  4 MCID3111142965 141001
#>  5 MCID3111143066 090401
#>  6 MCID3111143068 520201
#>  7 MCID3111143078 040401
#>  8 MCID3111143126 090401
#>  9 MCID3111143157 261399
#> 10 MCID3111144047 230101
#> # ℹ 40,480 more rows
```

Now we use an inner-join with our `programs` data frame, matching on
`cip6`, to retain only those students who complete one of our study
programs. We retain the `program` column and drop the `cip6` column.

``` r

programs_cols <- programs |>
  select(cip6, program)
DT <- inner_join(DT, programs_cols, by = join_by(cip6)) |>
  select(-cip6)
DT
#> # A tibble: 3,263 × 2
#>    mcid           program
#>    <chr>          <chr>  
#>  1 MCID3111142965 EE     
#>  2 MCID3111145102 EE     
#>  3 MCID3111146537 EE     
#>  4 MCID3111146674 EE     
#>  5 MCID3111150194 ISE    
#>  6 MCID3111151029 ME     
#>  7 MCID3111156062 CE     
#>  8 MCID3111156083 EE     
#>  9 MCID3111156325 EE     
#> 10 MCID3111158221 ISE    
#> # ℹ 3,253 more rows
```
…
### *Join demographics*

To add columns for student demographics, we left-join selected columns
from the `student` table, matching on `mcid`.

``` r

student_cols <- student |>
  select(mcid, race, sex)
DT <- left_join(DT, student_cols, by = join_by(mcid))
DT
#> # A tibble: 3,263 × 4
#>    mcid           program race          sex   
#>    <chr>          <chr>   <chr>         <chr> 
#>  1 MCID3111142965 EE      International Male  
#>  2 MCID3111145102 EE      White         Male  
#>  3 MCID3111146537 EE      Asian         Female
#>  4 MCID3111146674 EE      Asian         Male  
#>  5 MCID3111150194 ISE     Black         Male  
#>  6 MCID3111151029 ME      International Male  
#>  7 MCID3111156062 CE      White         Male  
#>  8 MCID3111156083 EE      White         Male  
#>  9 MCID3111156325 EE      White         Female
#> 10 MCID3111158221 ISE     White         Female
#> # ℹ 3,253 more rows
```

### *Bloc of timely graduates*

This is the bloc of timely graduates required by our metric. We add a
`bloc` variable with the value “grad” and ensure we have unique rows.

``` r

graduates <- DT |>
  mutate(bloc = "grad") |>
  unique()

graduates
#> # A tibble: 3,263 × 5
#>    mcid           program race          sex    bloc 
#>    <chr>          <chr>   <chr>         <chr>  <chr>
#>  1 MCID3111142965 EE      International Male   grad 
#>  2 MCID3111145102 EE      White         Male   grad 
#>  3 MCID3111146537 EE      Asian         Female grad 
#>  4 MCID3111146674 EE      Asian         Male   grad 
#>  5 MCID3111150194 ISE     Black         Male   grad 
#>  6 MCID3111151029 ME      International Male   grad 
#>  7 MCID3111156062 CE      White         Male   grad 
#>  8 MCID3111156083 EE      White         Male   grad 
#>  9 MCID3111156325 EE      White         Female grad 
#> 10 MCID3111158221 ISE     White         Female grad 
#> # ℹ 3,253 more rows
```

## Ever enrolled

Again we start with the baseline population.

``` r

DT <- population
DT
#> # A tibble: 76,865 × 1
#>    mcid          
#>    <chr>         
#>  1 MCID3111142689
#>  2 MCID3111142782
#>  3 MCID3111142881
#>  4 MCID3111142884
#>  5 MCID3111142893
#>  6 MCID3111142962
#>  7 MCID3111142965
#>  8 MCID3111143066
#>  9 MCID3111143068
#> 10 MCID3111143078
#> # ℹ 76,855 more rows
```

### *Filter by program*

We left-join the CIP column from the `term` table, matching on `mcid`.

``` r

term_cols <- term |>
  select(mcid, cip6) |>
  unique()
DT <- left_join(DT, term_cols, by = join_by(mcid))
DT
#> # A tibble: 126,168 × 2
#>    mcid           cip6  
#>    <chr>          <chr> 
#>  1 MCID3111142689 090401
#>  2 MCID3111142782 260101
#>  3 MCID3111142881 450601
#>  4 MCID3111142884 260406
#>  5 MCID3111142893 400801
#>  6 MCID3111142962 240102
#>  7 MCID3111142962 520201
#>  8 MCID3111142965 140102
#>  9 MCID3111142965 141001
#> 10 MCID3111143066 090401
#> # ℹ 126,158 more rows
```

We repeat the process we used earlier to inner-join our `programs` data
frame, matching on `cip6`.

``` r

programs_cols <- programs |>
  select(cip6, program)
DT <- inner_join(DT, programs_cols, by = join_by(cip6)) |>
  select(-cip6)
DT
#> # A tibble: 5,583 × 2
#>    mcid           program
#>    <chr>          <chr>  
#>  1 MCID3111142965 EE     
#>  2 MCID3111145102 EE     
#>  3 MCID3111146537 EE     
#>  4 MCID3111146674 EE     
#>  5 MCID3111150194 ISE    
#>  6 MCID3111151029 ME     
#>  7 MCID3111156062 CE     
#>  8 MCID3111156083 EE     
#>  9 MCID3111156325 EE     
#> 10 MCID3111158221 ISE    
#> # ℹ 5,573 more rows
```

With the CIP code removed, we filter for unique rows. This is an
important step because a student may switch CIP codes yet stay within a
program as defined by our custom labels. We want to avoid counting that
student as ever-enrolled more than once.

``` r

DT <- unique(DT)
DT
#> # A tibble: 5,583 × 2
#>    mcid           program
#>    <chr>          <chr>  
#>  1 MCID3111142965 EE     
#>  2 MCID3111145102 EE     
#>  3 MCID3111146537 EE     
#>  4 MCID3111146674 EE     
#>  5 MCID3111150194 ISE    
#>  6 MCID3111151029 ME     
#>  7 MCID3111156062 CE     
#>  8 MCID3111156083 EE     
#>  9 MCID3111156325 EE     
#> 10 MCID3111158221 ISE    
#> # ℹ 5,573 more rows
```
…
### *Join demographics*

Again, we left-join selected columns from the `student` table, matching
on `mcid`.

``` r

student_cols <- student |>
  select(mcid, race, sex)
DT <- left_join(DT, student_cols, by = join_by(mcid))
DT
#> # A tibble: 5,583 × 4
#>    mcid           program race          sex   
#>    <chr>          <chr>   <chr>         <chr> 
#>  1 MCID3111142965 EE      International Male  
#>  2 MCID3111145102 EE      White         Male  
#>  3 MCID3111146537 EE      Asian         Female
#>  4 MCID3111146674 EE      Asian         Male  
#>  5 MCID3111150194 ISE     Black         Male  
#>  6 MCID3111151029 ME      International Male  
#>  7 MCID3111156062 CE      White         Male  
#>  8 MCID3111156083 EE      White         Male  
#>  9 MCID3111156325 EE      White         Female
#> 10 MCID3111158221 ISE     White         Female
#> # ℹ 5,573 more rows
```

### *Bloc of ever-enrolled*

This is the bloc of students ever enrolled in our programs required by
our metric. We add a `bloc` variable with the value “ever” and ensure we
have unique rows.

``` r

ever_enrolled <- DT |>
  mutate(bloc = "ever") |>
  unique()

ever_enrolled
#> # A tibble: 5,583 × 5
#>    mcid           program race          sex    bloc 
#>    <chr>          <chr>   <chr>         <chr>  <chr>
#>  1 MCID3111142965 EE      International Male   ever 
#>  2 MCID3111145102 EE      White         Male   ever 
#>  3 MCID3111146537 EE      Asian         Female ever 
#>  4 MCID3111146674 EE      Asian         Male   ever 
#>  5 MCID3111150194 ISE     Black         Male   ever 
#>  6 MCID3111151029 ME      International Male   ever 
#>  7 MCID3111156062 CE      White         Male   ever 
#>  8 MCID3111156083 EE      White         Male   ever 
#>  9 MCID3111156325 EE      White         Female ever 
#> 10 MCID3111158221 ISE     White         Female ever 
#> # ℹ 5,573 more rows
```

## Outcomes

Combining the two data frames (blocs) by rows, we obtain the data
structure we need for grouping and summarizing.

``` r

DT <- bind_rows(graduates, ever_enrolled)
DT
#> # A tibble: 8,846 × 5
#>    mcid           program race          sex    bloc 
#>    <chr>          <chr>   <chr>         <chr>  <chr>
#>  1 MCID3111142965 EE      International Male   grad 
#>  2 MCID3111145102 EE      White         Male   grad 
#>  3 MCID3111146537 EE      Asian         Female grad 
#>  4 MCID3111146674 EE      Asian         Male   grad 
#>  5 MCID3111150194 ISE     Black         Male   grad 
#>  6 MCID3111151029 ME      International Male   grad 
#>  7 MCID3111156062 CE      White         Male   grad 
#>  8 MCID3111156083 EE      White         Male   grad 
#>  9 MCID3111156325 EE      White         Female grad 
#> 10 MCID3111158221 ISE     White         Female grad 
#> # ℹ 8,836 more rows
```

### *Group and summarize*

Count the numbers of observations for each combination of the grouping
variables.

``` r

DT <- DT %>%
  count(bloc, program, race, sex, name = "N")
DT
#> # A tibble: 98 × 5
#>    bloc  program race            sex        N
#>    <chr> <chr>   <chr>           <chr>  <int>
#>  1 ever  CE      Asian           Female    14
#>  2 ever  CE      Asian           Male      30
#>  3 ever  CE      Black           Female     4
#>  4 ever  CE      Black           Male       8
#>  5 ever  CE      Hispanic        Female    13
#>  6 ever  CE      Hispanic        Male      66
#>  7 ever  CE      International   Female    23
#>  8 ever  CE      International   Male      97
#>  9 ever  CE      Native American Female     1
#> 10 ever  CE      Native American Male       3
#> # ℹ 88 more rows
```
…
``` r

DT <- DT |>
  pivot_wider(
    names_from = bloc,
    values_from = N,
    values_fill = 0
  )
DT
#> # A tibble: 50 × 5
#>    program race            sex     ever  grad
#>    <chr>   <chr>           <chr>  <int> <int>
#>  1 CE      Asian           Female    14    10
#>  2 CE      Asian           Male      30    25
#>  3 CE      Black           Female     4     1
#>  4 CE      Black           Male       8     5
#>  5 CE      Hispanic        Female    13     6
#>  6 CE      Hispanic        Male      66    31
#>  7 CE      International   Female    23    13
#>  8 CE      International   Male      97    55
#>  9 CE      Native American Female     1     1
#> 10 CE      Native American Male       3     1
#> # ℹ 40 more rows
```
…
