Selecting CIP codes • midfieldr
…
cip_filter() filters cip for the programs we wish to study. The function has two arguments:

series Search terms. A character vector of codes or keywords.

data A searchable data frame (cip is the default).

With no arguments, cip_filter() returns the top-level entry for each 2-digit series.

cip_filter()
#> # A tibble: 48 x 6
#>   CIP2  CIP2Name             CIP4  CIP4Name         CIP6  CIP6Name        
#>   <chr> <chr>                <chr> <chr>            <chr> <chr>           
#> 1 01    Agriculture/Agricul~ 0100  Agriculture/Gen~ 0100~ Agriculture - G~
#> 2 03    Natural Resources a~ 0301  Natural Resourc~ 0301~ Natural Resourc~
#> 3 04    Architecture and Re~ 0402  Architecture     0402~ Architecture (B~
#> 4 05    Area/Ethnic/Cultura~ 0501  Area Studies     0501~ African Studies 
#> 5 09    Communications/Jour~ 0901  Communications ~ 0901~ Communication -~
#> # ... with 43 more rows
…
