Explore multiway data • midfieldr
…
Introduction

Many persistence metrics can be organized as multiway data in which there is is one quantitative variable and two categorical variables. To quote Bill Cleveland (1993),

the quantitative variable is a response, and the goal is to study how it depends on the categorical variables, which are factors. What distinguishes multiway data is the cross-classification of the categorical variables; there is a value of the response for each combination of levels of the two categorical variables.

Preparing the data

We’ll use the stickiness metric to illustrate multiway graphs and data tables. Stickiness is the ratio of the number of students graduating in a program to the number of students ever enrolled in that program (Ohland et al. 2012).

exa_stickiness is a sample dataset included with midfieldr:

# an example dataset
exa_stickiness
#> # A tibble: 54 x 6
#>   program           race            sex     ever  grad stick
#>   <chr>             <chr>           <chr>  <int> <int> <dbl>
#> 1 Civil Engineering Asian           Female    22    11 0.5  
#> 2 Civil Engineering Asian           Male      53    24 0.453
#> 3 Civil Engineering Black           Female    71    21 0.296
#> 4 Civil Engineering Black           Male     131    39 0.298
#> 5 Civil Engineering Hispanic        Female    15     5 0.333
#> 6 Civil Engineering Hispanic        Male      85    30 0.353
#> 7 Civil Engineering International   Male      20     5 0.25 
#> 8 Civil Engineering Native American Male       7     3 0.429
#> # ... with 46 more rows
…
glimpse() shows that the two categorical variables are factors.

Optionally, using the return_medians argument, the function returns the median values used in ordering the factors. By arranging the rows of the data frame by program and race_sex factors, we can see that they are ordered by the medians.

# return the median stickiness value for both categories
df <- multiway_order(stickiness, return_medians = TRUE) %>%
  arrange(program, race_sex) %>%
  print()
#> # A tibble: 54 x 5
#>   program                race_sex               stick med_program med_race_sex
#>   <fct>                  <fct>                  <dbl>       <dbl>        <dbl>
#> 1 Mechanical Engineering Other Female           0.154       0.351        0.214
#> 2 Mechanical Engineering Native American Male   0.263       0.351        0.263
#> 3 Mechanical Engineering Hispanic Female        0.25        0.351        0.292
#> 4 Mechanical Engineering Black Male             0.326       0.351        0.328
#> 5 Mechanical Engineering Native American Female 0.333       0.351        0.333
#> 6 Mechanical Engineering Other Male             0.4         0.351        0.352
#> 7 Mechanical Engineering Hispanic Male          0.351       0.351        0.356
#> 8 Mechanical Engineering Black Female           0.327       0.351        0.364
#> # ... with 46 more rows
…
