Filter for feasible completion • midfieldr
…
Join the student’s entering term and transfer status and the institution’s last term with the non-grads.

non_grads <- non_grads %>%
  left_join(., students, by = c("id", "institution")) %>%
  left_join(., inst_span, by = "institution") %>%
  select(id, institution, transfer, inst_max, term_enter) %>%
  mutate(delta = inst_max - term_enter)

non_grads
#> # A tibble: 50,141 x 6
#>    id          institution   transfer inst_max term_enter delta
#>    <chr>       <chr>         <chr>       <dbl>      <dbl> <dbl>
#>  1 MID25783135 Institution M N           20096      19911   185
#>  2 MID25783147 Institution M N           20096      20041    55
#>  3 MID25783156 Institution M N           20096      20011    85
#>  4 MID25783166 Institution M N           20096      20091     5
#>  5 MID25783167 Institution M N           20096      20051    45
#>  6 MID25783184 Institution M N           20096      20051    45
#>  7 MID25783199 Institution M N           20096      20061    35
#>  8 MID25783220 Institution M N           20096      19971   125
#>  9 MID25783223 Institution M N           20096      19903   193
#> 10 MID25783226 Institution M Y           20096      20031    65
#> 11 MID25783227 Institution M N           20096      20031    65
#> 12 MID25783257 Institution M N           20096      20051    45
#> # ... with 50,129 more rows
…
pos_grad6_id <- bind_rows(pos_grad6_id, keepers)
glimpse(pos_grad6_id)
#> Rows: 71,189
#> Columns: 1
#> $ id <chr> "MID25783162", "MID25783178", "MID25783188", "MID25783195", "MID...

The group of non-grads that remains needs further study

study_group <- non_grads %>%
  filter(delta < 60)

study_group
#> # A tibble: 26,451 x 6
#>    id          institution   transfer inst_max term_enter delta
#>    <chr>       <chr>         <chr>       <dbl>      <dbl> <dbl>
#>  1 MID25783147 Institution M N           20096      20041    55
#>  2 MID25783166 Institution M N           20096      20091     5
#>  3 MID25783167 Institution M N           20096      20051    45
#>  4 MID25783184 Institution M N           20096      20051    45
#>  5 MID25783199 Institution M N           20096      20061    35
#>  6 MID25783257 Institution M N           20096      20051    45
#>  7 MID25783275 Institution M N           20096      20061    35
#>  8 MID25783284 Institution M N           20096      20041    55
#>  9 MID25783301 Institution M N           20096      20041    55
#> 10 MID25783311 Institution M N           20096      20061    35
#> 11 MID25783322 Institution M N           20096      20061    35
#> 12 MID25783344 Institution M N           20096      20041    55
#> # ... with 26,439 more rows

Let’s start by separating transfers and non-transfers. Non-transfers with \(\Delta < 60\) will be assumed to not satisfy pos-grad-6. Their IDs will be excluded from further analysis.

non_transfer <- study_group %>%
  filter(transfer == "N")

exclude_id <- non_transfer
exclude_id
#> # A tibble: 23,051 x 6
#>    id          institution   transfer inst_max term_enter delta
#>    <chr>       <chr>         <chr>       <dbl>      <dbl> <dbl>
#>  1 MID25783147 Institution M N           20096      20041    55
#>  2 MID25783166 Institution M N           20096      20091     5
#>  3 MID25783167 Institution M N           20096      20051    45
#>  4 MID25783184 Institution M N           20096      20051    45
#>  5 MID25783199 Institution M N           20096      20061    35
#>  6 MID25783257 Institution M N           20096      20051    45
#>  7 MID25783275 Institution M N           20096      20061    35
#>  8 MID25783284 Institution M N           20096      20041    55
#>  9 MID25783301 Institution M N           20096      20041    55
#> 10 MID25783311 Institution M N           20096      20061    35
#> 11 MID25783322 Institution M N           20096      20061    35
#> 12 MID25783344 Institution M N           20096      20041    55
#> # ... with 23,039 more rows

For the transfer students, the length of time from their entering term to the last term in the institution data depends on their entering status. Join level and standing from terms data.

transfer <- study_group %>%
  filter(transfer == "Y") %>%
  left_join(., terms, by = c("id", "institution")) %>%
  select(id, delta, term_enter, term, level, standing)

transfer
#> # A tibble: 13,524 x 6
#>    id          delta term_enter  term level       standing             
#>    <chr>       <dbl>      <dbl> <dbl> <chr>       <chr>                
#>  1 MID25821313    33      20063 20063 03 Junior   New Transfer         
#>  2 MID25853268    23      20081 20081 04 Senior   New Transfer         
#>  3 MID25853268    23      20081 20083 04 Senior   Good Standing        
#>  4 MID25853778    51      20053 20043 01 Freshman First Time in College
#>  5 MID25853778    51      20053 20053 01 Freshman Good Standing        
#>  6 MID25854173    53      20051 20051 04 Senior   New Transfer         
#>  7 MID25854173    53      20051 20053 04 Senior   Good Standing        
#>  8 MID25854239    53      20051 20051 04 Senior   New Transfer         
#>  9 MID25854239    53      20051 20053 04 Senior   Good Standing        
#> 10 MID25854239    53      20051 20054 04 Senior   Good Standing        
#> 11 MID25854239    53      20051 20061 04 Senior   Good Standing        
#> 12 MID25854239    53      20051 20063 04 Senior   Good Standing        
#> # ... with 13,512 more rows
…
