Filtering CIP data • midfieldr
…
# the cip data are included with midfieldr 
library(midfieldr)

# packages used in the vignette
library(dplyr) 
library(stringr)

Type ?cip for the cip dataset help page.

Basic filtering

With the default arguments, the set of 2-digit codes and names is returned with 48 observations.

filter_cip()
#> # A tibble: 48 x 2
#>    code                                                     name
#>   <chr>                                                    <chr>
#> 1    01 Agriculture/Agricultural Operations and Related Sciences
#> 2    03                       Natural Resources and Conservation
#> 3    04                        Architecture and Related Services
#> 4    05                  Area/Ethnic/Cultural and Gender Studies
#> 5    09           Communications/Journalism and Related Programs
#> 6    10         Communications Technologies and Support Services
#> # ... with 42 more rows

With type = 4 we get the set of 4-digit names and codes with 411 observations.

filter_cip(type = 4)
#> # A tibble: 411 x 2
#>    code                                      name
#>   <chr>                                     <chr>
#> 1  0100                       Agriculture/General
#> 2  0101      Agricultural Business and Management
#> 3  0102                Agricultural Mechanization
#> 4  0103        Agricultural Production Operations
#> 5  0104 Agricultural and Food Products Processing
#> 6  0105 Agricultural and Domestic Animal Services
#> # ... with 405 more rows

With type = 6 we get the set of 6-digit names and codes with 1543 observations.

filter_cip(type = 6)
#> # A tibble: 1,543 x 2
#>     code                                                 name
#>    <chr>                                                <chr>
#> 1 010000                                Agriculture - General
#> 2 010101       Agricultural Business and Management - General
#> 3 010102        Agribusiness/Agricultural Business Operations
#> 4 010103                               Agricultural Economics
#> 5 010104                       Farm/Farm and Ranch Management
#> 6 010105 Agricultural/Farm Supplies Retailing and Wholesaling
#> # ... with 1,537 more rows
…
The series argument can return more than one series.

filter_cip(series = c("14", "15"))
#> # A tibble: 2 x 2
#>    code                   name
#>   <chr>                  <chr>
#> 1    14            Engineering
#> 2    15 Engineering Technology

Changing to 4-digit codes yields all the 4-digit codes in these series.

filter_cip(type = 4, series = c("14", "15"))
#> # A tibble: 57 x 2
#>    code                                                   name
#>   <chr>                                                  <chr>
#> 1  1401                                    Engineering/General
#> 2  1402   Aerospace/Aeronautical and Astronautical Engineering
#> 3  1403 Agricultural/Biological Engineering and Bioengineering
#> 4  1404                              Architectural Engineering
#> 5  1405                         Biomedical/Medical Engineering
#> 6  1406                       Ceramic Sciences and Engineering
#> # ... with 51 more rows
…
Engineering: series_engr

Humanities: series_hum

Mathematics: series_math

Sciences: series_sci

Social Sciences: series_socsci

For example, to obtain all 4-digit level Engineering programs,

filter_cip(type = 4, series = series_engr)
#> # A tibble: 40 x 2
#>    code                                                   name
#>   <chr>                                                  <chr>
#> 1  1401                                    Engineering/General
#> 2  1402   Aerospace/Aeronautical and Astronautical Engineering
#> 3  1403 Agricultural/Biological Engineering and Bioengineering
#> 4  1404                              Architectural Engineering
#> 5  1405                         Biomedical/Medical Engineering
#> 6  1406                       Ceramic Sciences and Engineering
#> # ... with 34 more rows

To obtain all 6-digit Engineering,

filter_cip(type = 6, series =  series_engr)
#> # A tibble: 54 x 2
#>     code                                                   name
#>    <chr>                                                  <chr>
#> 1 140101                                  Engineering - General
#> 2 140102                                        Pre-Engineering
#> 3 140201   Aerospace/Aeronautical and Astronautical Engineering
#> 4 140301 Agricultural/Biological Engineering and Bioengineering
#> 5 140401                              Architectural Engineering
#> 6 140501                         Biomedical/Medical Engineering
#> # ... with 48 more rows
…
add_codes     <- c("3005", "3015")
my_series_socsci <- c(my_series_socsci, add_codes)

# check the result
my_series_socsci
#>  [1] "05"   "09"   "13"   "19"   "22"   "25"   "36"   "42"   "43"   "44"  
#> [11] "45"   "3020" "3021" "3023" "3026" "3005" "3015"

Filter by name

To filter by name across all levels (2, 4, 6), use the conventional dplyr::filter() function. For example, search for all names that include "techno".

# filter CIP over names, all levels
filter(cip, str_detect(name, fixed("techno", ignore_case = TRUE)))
#> # A tibble: 209 x 2
#>    code                                             name
#>   <chr>                                            <chr>
#> 1    10 Communications Technologies and Support Services
#> 2    15                           Engineering Technology
#> 3    29                            Military Technologies
#> 4    41                 Science Technologies/Technicians
#> 5    47                   Mechanic and Repair Technology
#> 6  0110                      Food Science and Technology
#> # ... with 203 more rows
…
