Gather program data • midfieldr
…
▲ top of page

Custom program names

The case study programs are Civil, Electrical, Industrial, and Mechanical Engineering.

# packages used
library("midfieldr")
library("dplyr")
library("stringr")

The data frame exa_cip (one of the midfieldr built-in datasets) contains the full CIP information for these four programs.

print(exa_cip)
#> # A tibble: 12 x 6
#>   cip2  cip2name   cip4  cip4name                 cip6  cip6name                
#>   <chr> <chr>      <chr> <chr>                    <chr> <chr>                   
#> 1 14    Engineeri~ 1408  Civil Engineering        1408~ Civil Engineering, Gene~
#> 2 14    Engineeri~ 1408  Civil Engineering        1408~ Geotechnical Engineering
#> 3 14    Engineeri~ 1408  Civil Engineering        1408~ Structural Engineering  
#> 4 14    Engineeri~ 1408  Civil Engineering        1408~ Transportation and High~
#> 5 14    Engineeri~ 1408  Civil Engineering        1408~ Water Resources Enginee~
#> 6 14    Engineeri~ 1408  Civil Engineering        1408~ Civil Engineering, Other
#> 7 14    Engineeri~ 1410  Electrical, Electronics~ 1410~ Electrical, Electronics~
#> 8 14    Engineeri~ 1410  Electrical, Electronics~ 1410~ Laser and Optical Engin~
#> # ... with 4 more rows
…
Parks, Recreation, Leisure and Fitness Studies, Other

▲ top of page

CIP variables with non-standard names

Optional arguments in cip6_select() accommodate the possibility that one uses a CIP data frame with different variable names than those in midfieldr::cip. The four columns accommodated are cip6, cip6name, cip4name, and cip2name.

For illustration only, let’s create a CIP data frame called nonstandard_cip with a different name for the two variables cip6 and cip6name.

# create CIP data frame with non-standard variable names
nonstandard_cip <- exa_cip %>%
  rename("CODE_6" = cip6, "NAME_6" = cip6name) %>%
  print()
#> # A tibble: 12 x 6
#>   cip2  cip2name    cip4  cip4name        CODE_6 NAME_6                         
#>   <chr> <chr>       <chr> <chr>           <chr>  <chr>                          
#> 1 14    Engineering 1408  Civil Engineer~ 140801 Civil Engineering, General     
#> 2 14    Engineering 1408  Civil Engineer~ 140802 Geotechnical Engineering       
#> 3 14    Engineering 1408  Civil Engineer~ 140803 Structural Engineering         
#> 4 14    Engineering 1408  Civil Engineer~ 140804 Transportation and Highway Eng~
#> 5 14    Engineering 1408  Civil Engineer~ 140805 Water Resources Engineering    
#> # ... with 7 more rows
…
If the non-standard variable names must be kept intact, then we use the optional arguments cip6 and cip6name so that cip6_select() can operate on the nonstandard column names.

# incorrect
nonstandard_cip %>%
  cip6_select(program = "Civil Engineering") %>%
  print()
#> Error: Can't subset columns that don't exist.
#> Column `cip6` doesn't exist

# correct using optional arguments
nonstandard_cip %>%
  cip6_select(program = "Civil Engineering", cip6 = "CODE_6", cip6name = "NAME_6") %>%
  print()
#> # A tibble: 12 x 3
#>   CODE_6 NAME_6                                 program          
#>   <chr>  <chr>                                  <chr>            
#> 1 140801 Civil Engineering, General             Civil Engineering
#> 2 140802 Geotechnical Engineering               Civil Engineering
#> 3 140803 Structural Engineering                 Civil Engineering
#> 4 140804 Transportation and Highway Engineering Civil Engineering
#> 5 140805 Water Resources Engineering            Civil Engineering
#> # ... with 7 more rows

Option 2. Non-standard names can be revised

If the non-standard variable names do not have to be kept intact, the simple option is to dplyr::rename() the nonstandard variable names to the standard names, e.g.,

# rename the variables
standard_cip <- nonstandard_cip %>%
  rename("cip6" = CODE_6, "cip6name" = NAME_6) %>%
  cip6_select(program = "Civil Engineering") %>%
  print()
#> # A tibble: 12 x 3
#>   cip6   cip6name                               program          
#>   <chr>  <chr>                                  <chr>            
#> 1 140801 Civil Engineering, General             Civil Engineering
#> 2 140802 Geotechnical Engineering               Civil Engineering
#> 3 140803 Structural Engineering                 Civil Engineering
#> 4 140804 Transportation and Highway Engineering Civil Engineering
#> 5 140805 Water Resources Engineering            Civil Engineering
#> # ... with 7 more rows
…
