Possible to graduate • midfieldr
…
Join the student’s entering term and transfer status and the institution’s last term with the non-grads.

non_grads <- non_grads %>% 
    left_join(., students, by = c("id", "institution")) %>% 
    left_join(., inst_span, by = "institution") %>% 
    select(id, institution, transfer, inst_max, term_enter) %>% 
    mutate(delta = inst_max - term_enter)

non_grads
#> # A tibble: 50,141 x 6
#>    id          institution   transfer inst_max term_enter delta
#>    <chr>       <chr>         <chr>       <dbl>      <dbl> <dbl>
#>  1 MID25783135 Institution M N              NA      19911    NA
#>  2 MID25783147 Institution M N              NA      20041    NA
#>  3 MID25783156 Institution M N              NA      20011    NA
#>  4 MID25783166 Institution M N              NA      20091    NA
#>  5 MID25783167 Institution M N              NA      20051    NA
#>  6 MID25783184 Institution M N              NA      20051    NA
#>  7 MID25783199 Institution M N              NA      20061    NA
#>  8 MID25783220 Institution M N              NA      19971    NA
#>  9 MID25783223 Institution M N              NA      19903    NA
#> 10 MID25783226 Institution M Y              NA      20031    NA
#> 11 MID25783227 Institution M N              NA      20031    NA
#> 12 MID25783257 Institution M N              NA      20051    NA
#> # ... with 50,129 more rows
…
pos_grad6_id <- bind_rows(pos_grad6_id, keepers)
glimpse(pos_grad6_id)
#> Observations: 50,875
#> Variables: 1
#> $ id <chr> "MID25783162", "MID25783178", "MID25783188", "MID25783195",...

The group of non-grads that remains needs further study

study_group <- non_grads %>% 
        filter(delta < 60)

study_group
#> # A tibble: 4,753 x 6
#>    id          institution   transfer inst_max term_enter delta
#>    <chr>       <chr>         <chr>       <dbl>      <dbl> <dbl>
#>  1 MID26131491 Institution A Y           20034      20021    13
#>  2 MID26131493 Institution A N           20034      20021    13
#>  3 MID26131501 Institution A N           20034      20013    21
#>  4 MID26131502 Institution A N           20034      20011    23
#>  5 MID26131511 Institution A N           20034      20011    23
#>  6 MID26131523 Institution A Y           20034      20011    23
#>  7 MID26131528 Institution A N           20034      20003    31
#>  8 MID26131544 Institution A N           20034      19981    53
#>  9 MID26131965 Institution K N           20034      19983    51
#> 10 MID26131974 Institution K N           20034      19984    50
#> 11 MID26131975 Institution K N           20034      19991    43
#> 12 MID26132017 Institution K N           20034      20023    11
#> # ... with 4,741 more rows

Let’s start by separating transfers and non-transfers. Non-transfers with \(\Delta < 60\) will be assumed to not satisfy pos-grad-6. Their IDs will be exclkuded from further analysis.

non_transfer <- study_group %>% 
    filter(transfer == "N")

exclude_id <- non_transfer
exclude_id
#> # A tibble: 4,356 x 6
#>    id          institution   transfer inst_max term_enter delta
#>    <chr>       <chr>         <chr>       <dbl>      <dbl> <dbl>
#>  1 MID26131493 Institution A N           20034      20021    13
#>  2 MID26131501 Institution A N           20034      20013    21
#>  3 MID26131502 Institution A N           20034      20011    23
#>  4 MID26131511 Institution A N           20034      20011    23
#>  5 MID26131528 Institution A N           20034      20003    31
#>  6 MID26131544 Institution A N           20034      19981    53
#>  7 MID26131965 Institution K N           20034      19983    51
#>  8 MID26131974 Institution K N           20034      19984    50
#>  9 MID26131975 Institution K N           20034      19991    43
#> 10 MID26132017 Institution K N           20034      20023    11
#> 11 MID26132023 Institution K N           20034      19991    43
#> 12 MID26132034 Institution A N           20034      20011    23
#> # ... with 4,344 more rows

For the transfer students, the length of time from their entering term to the last term in the institution data depends on their entering status. Join level and standing from terms data.

transfer <- study_group %>% 
    filter(transfer == "Y") %>% 
    left_join(., terms, by = c("id", "institution")) %>% 
    select(id, delta, term_enter, term, level, standing) 

transfer
#> # A tibble: 1,524 x 6
#>    id          delta term_enter  term level        standing             
#>    <chr>       <dbl>      <dbl> <dbl> <chr>        <chr>                
#>  1 MID26131491    13      20021 20021 01 Freshman  First Time in College
#>  2 MID26131523    23      20011 20011 01 Freshman  First Time in College
#>  3 MID26132316    13      20021 20021 01 Freshman  First Time in College
#>  4 MID26132316    13      20021 20023 01 Freshman  Good Standing        
#>  5 MID26132316    13      20021 20024 02 Sophomore Good Standing        
#>  6 MID26132316    13      20021 20031 02 Sophomore Good Standing        
#>  7 MID26132316    13      20021 20033 02 Sophomore Good Standing        
#>  8 MID26132732    11      20023 20023 01 Freshman  First Time in College
#>  9 MID26132732    11      20023 20031 01 Freshman  Good Standing        
#> 10 MID26132732    11      20023 20033 01 Freshman  Good Standing        
#> 11 MID26132732    11      20023 20034 01 Freshman  Good Standing        
#> 12 MID26133559    13      20021 20021 01 Freshman  First Time in College
#> # ... with 1,512 more rows
…
