Computing graduation rate • midfieldr
…
# should match the dimension of starters
isTRUE(nrow(started) == length(unique(started[["id"]])))
#> [1] TRUE

grad_filter()

Next we gather the graduates in our program group, but restrict ourselves to students who graduate in the same program in which they started.

We use grad_filter() to search the midfielddegrees dataset using the programs listed in program_series.

# count students graduating from programs
graduated <- grad_filter(series = program_series) %.>%
  print(.)
#> # A tibble: 4,676 x 2
#>   id          cip6  
#>   <chr>       <chr> 
#> 1 MID25783178 143501
#> 2 MID25783197 140801
#> 3 MID25783441 140801
#> 4 MID25783491 141001
#> 5 MID25783912 143501
#> # ... with 4,671 more rows
…
In the join, we keep all starters and we keep only those graduates whose ID is also in the starters.

start_series <- started[["id"]] %.>%
  glimpse(.)
#>  chr [1:8849] "MID25792087" "MID25796088" "MID25799551" "MID25799578" ...

collapse_series <- stringr::str_c(start_series, collapse = "|")

graduated <- dplyr::filter(
  graduated,
  stringr::str_detect(id, collapse_series)
) %.>%
  print(.)
#> # A tibble: 3,380 x 2
#>   id          cip6  
#>   <chr>       <chr> 
#> 1 MID25783441 140801
#> 2 MID25783491 141001
#> 3 MID25783912 143501
#> 4 MID25784334 140801
#> 5 MID25784418 140801
#> # ... with 3,375 more rows

Join race and sex to both data frames, and the program names.

# assign the variables for grouping
grouping_variables <- c("program", "race", "sex")

# count students
started <- started %.>%
  race_sex_join(.) %.>%
  left_join(., program_group, by = "cip6") %.>%
  group_summarize(., grouping_variables, "start" = n()) %.>%
  print(.)
#> # A tibble: 63 x 4
#>   program           race     sex    start
#>   <chr>             <chr>    <chr>  <int>
#> 1 Civil Engineering Asian    Female    18
#> 2 Civil Engineering Asian    Male      47
#> 3 Civil Engineering Black    Female    56
#> 4 Civil Engineering Black    Male      99
#> 5 Civil Engineering Hispanic Female    16
#> # ... with 58 more rows
graduated <- graduated %.>%
  race_sex_join(.) %.>%
  left_join(., program_group, by = "cip6") %.>%
  group_summarize(., grouping_variables, "grad" = n()) %.>%
  print(.)
#> # A tibble: 59 x 4
#>   program           race     sex     grad
#>   <chr>             <chr>    <chr>  <int>
#> 1 Civil Engineering Asian    Female     7
#> 2 Civil Engineering Asian    Male      18
#> 3 Civil Engineering Black    Female    18
#> 4 Civil Engineering Black    Male      33
#> 5 Civil Engineering Hispanic Female     3
#> # ... with 54 more rows

And join the two data frames

# tally stickiness, by group
grad_rate <- left_join(started, graduated, by = grouping_variables) %.>%
  filter(., start > 5) %.>%
  mutate(., rate = round(grad / start, 2)) %.>%
  print(.)
#> # A tibble: 47 x 6
#>   program           race     sex    start  grad  rate
#>   <chr>             <chr>    <chr>  <int> <int> <dbl>
#> 1 Civil Engineering Asian    Female    18     7  0.39
#> 2 Civil Engineering Asian    Male      47    18  0.38
#> 3 Civil Engineering Black    Female    56    18  0.32
#> 4 Civil Engineering Black    Male      99    33  0.33
#> 5 Civil Engineering Hispanic Female    16     3  0.19
#> # ... with 42 more rows
…
