Multiway data, graphs, and tables • midfieldr
…
Introduction

Many persistence metrics can be organized as multiway data in which there is is one quantitative variable and two categorical variables. To quote Bill Cleveland (1993),

the quantitative variable is a response, and the goal is to study how it depends on the categorical variables, which are factors. What distinguishes multiway data is the cross-classification of the categorical variables; there is a value of the response for each combination of levels of the two categorical variables.

Preparing the data

We’ll use the stickiness metric to illustrate multiway graphs and data tables. Stickiness is the ratio of the number of students graduating in a program to the number of students ever enrolled in that program (Ohland et al. 2012).

case_stickiness is a sample dataset included with midfieldr:

# an example dataset
case_stickiness
#> # A tibble: 32 x 6
#>   program           race     sex     ever  grad stick
#>   <chr>             <chr>    <chr>  <dbl> <dbl> <dbl>
#> 1 Civil Engineering Asian    Female    22    11 0.5  
#> 2 Civil Engineering Asian    Male      54    24 0.444
#> 3 Civil Engineering Black    Female    71    21 0.296
#> 4 Civil Engineering Black    Male     132    39 0.295
#> 5 Civil Engineering Hispanic Female    16     5 0.312
#> 6 Civil Engineering Hispanic Male      85    30 0.353
#> 7 Civil Engineering White    Female   445   192 0.431
#> 8 Civil Engineering White    Male    1494   708 0.474
#> # ... with 24 more rows
…
glimpse() shows that the two categorical variables are factors.

Optionally, using the return_medians argument, the function returns the median values used in ordering the factors. By arranging the rows of the data frame by program and race_sex factors, we can see that they are ordered by the medians.

# return the median stickiness value for both categories
df <- multiway_order(stickiness, return_medians = TRUE) %.>%
  arrange(., program, race_sex)
df
#> # A tibble: 32 x 5
#>   program                race_sex        stick med_program med_race_sex
#>   <fct>                  <fct>           <dbl>       <dbl>        <dbl>
#> 1 Mechanical Engineering Hispanic Female 0.25        0.335        0.281
#> 2 Mechanical Engineering Black Male      0.325       0.335        0.328
#> 3 Mechanical Engineering Hispanic Male   0.345       0.335        0.352
#> 4 Mechanical Engineering Black Female    0.324       0.335        0.362
#> 5 Mechanical Engineering White Female    0.325       0.335        0.378
#> 6 Mechanical Engineering Asian Female    0.395       0.335        0.44 
#> 7 Mechanical Engineering White Male      0.447       0.335        0.46 
#> 8 Mechanical Engineering Asian Male      0.471       0.335        0.471
#> # ... with 24 more rows
…
