Stickiness metric • midfieldr
…
This is the point at which you decide how to group the student counts. Here, we disaggregate by race/ethnicity, sex, and program. The count() function creates a new variable n that we rename EVER.

# count ever enrolled by grouping variables 
ever_count <- dplyr::count(ever, PGRM, ETHNIC, SEX)  %>% 
    rename(EVER = n)

# examine the result
ever_count <- dplyr::arrange(ever_count, desc(EVER))
ever_count
#> # A tibble: 53 x 4
#>    PGRM                   ETHNIC          SEX    EVER
#>    <chr>                  <chr>           <chr> <int>
#>  1 Mechanical Engineering White           M     21092
#>  2 Civil Engineering      White           M     11146
#>  3 Electrical Engineering White           M      8029
#>  4 Civil Engineering      White           F      3080
#>  5 Mechanical Engineering White           F      2573
#>  6 Mechanical Engineering Hispanic/Latino M      1302
#>  7 Mechanical Engineering No Response     M      1071
#>  8 Electrical Engineering International   M       974
#>  9 Electrical Engineering White           F       961
#> 10 Mechanical Engineering International   M       953
#> # ... with 43 more rows
…
