Classification of instructional programs (CIP) data — cip • midfieldr
…
  14YYYYEngineering-Focused Curricula (pseudo-FYE). For instances
  in which a student is eligible for admission to the institution but has
  not been admitted to an engineering program. Some institutions without
  FYE programs use such a designation in lieu of undecided or unspecified.

  999999Undecided or Unspecified. For instances in which
  institutions reported no program information or that students were
  not enrolled in a program.

    Examples

# View the CIP data
cip
#> # A tibble: 1,584 x 6
#>    cip2  cip2name               cip4  cip4name        cip6  cip6name            
#>    <chr> <chr>                  <chr> <chr>           <chr> <chr>               
#>  1 01    Agriculture, Agricult~ 0100  Agriculture, G~ 0100~ Agriculture, General
#>  2 01    Agriculture, Agricult~ 0101  Agricultural B~ 0101~ Agricultural Busine~
#>  3 01    Agriculture, Agricult~ 0101  Agricultural B~ 0101~ Agribusiness, Agric~
#>  4 01    Agriculture, Agricult~ 0101  Agricultural B~ 0101~ Agricultural Econom~
#>  5 01    Agriculture, Agricult~ 0101  Agricultural B~ 0101~ Farm, Farm and Ranc~
#>  6 01    Agriculture, Agricult~ 0101  Agricultural B~ 0101~ Agricultural, Farm ~
#>  7 01    Agriculture, Agricult~ 0101  Agricultural B~ 0101~ Agricultural Busine~
#>  8 01    Agriculture, Agricult~ 0101  Agricultural B~ 0101~ Agricultural Busine~
#>  9 01    Agriculture, Agricult~ 0102  Agricultural M~ 0102~ Agricultural Mechan~
#> 10 01    Agriculture, Agricult~ 0102  Agricultural M~ 0102~ Agricultural Power ~
#> # ... with 1,574 more rows

# View the programs at the top level of the taxonomy
unique(cip[, 1:2])
#> # A tibble: 46 x 2
#>    cip2  cip2name                                                 
#>    <chr> <chr>                                                    
#>  1 01    Agriculture, Agricultural Operations and Related Sciences
#>  2 03    Natural Resources and Conservation                       
#>  3 04    Architecture and Related Services                        
#>  4 05    Area, Ethnic, Cultural and Gender and Group Studies      
#>  5 09    Communications, Journalism and Related Programs          
#>  6 10    Communications Technologies and Support Services         
#>  7 11    Computer and information Sciences and Support Services   
#>  8 12    Personal and Culinary Services                           
#>  9 13    Education                                                
#> 10 14    Engineering                                              
#> # ... with 36 more rows
…
