Gather graduates — grad_filter • midfieldr
…
    See also

    cip_filter for obtaining 6-digit CIP codes

    Examples

grad <- grad_filter(series = "540104")
grad
#> # A tibble: 24 x 2
#>    id          cip6  
#>    <chr>       <chr> 
#>  1 MID26360410 540104
#>  2 MID26361391 540104
#>  3 MID26362301 540104
#>  4 MID26362581 540104
#>  5 MID26365694 540104
#>  6 MID26365705 540104
#>  7 MID26366791 540104
#>  8 MID26367223 540104
#>  9 MID26368839 540104
#> 10 MID26383658 540104
#> # ... with 14 more rows
…
