Named colors from the ColorBrewer palettes — rcb_colors • midfieldr
…
    Details

    This dataset provides convenient access to selected ColorBrewer
palettes: diverging brown-bluegreen (BrBG) with 8 levels; diverging
purple-green (PRGn) with 8 levels; and sequential gray (Greys) with the
middle four of 6 levels.

The color names have the form "level_hue" with 4 saturation levels (dark,
mid, light, pale) and 5 hues (Br, BG, PR, Gn, Gray or Grey).

    Examples

rcb_colors
#> # A tibble: 24 x 2
#>    rcb_name rcb_code
#>    <chr>    <chr>   
#>  1 dark_Br  #8C510A 
#>  2 mid_Br   #BF812D 
#>  3 light_Br #DFC27D 
#>  4 pale_Br  #F6E8C3 
#>  5 pale_BG  #C7EAE5 
#>  6 light_BG #80CDC1 
#>  7 mid_BG   #35978F 
#>  8 dark_BG  #01665E 
#>  9 dark_PR  #762A83 
#> 10 mid_PR   #9970AB 
#> # ... with 14 more rows
…
